25z5g623wpqpdwis.onion.to,unknown
27c73bq66y4xqoh7.dorfact.at,unknown
27lelchgcvs2wpm7.3lhjyx.top,unknown
27lelchgcvs2wpm7.7jiff7.top,unknown
27lelchgcvs2wpm7.7zv8o2.top,unknown
27lelchgcvs2wpm7.9ildst.top,unknown
27lelchgcvs2wpm7.adevf4.top,unknown
27lelchgcvs2wpm7.ag082d.top,unknown
27lelchgcvs2wpm7.apperloads.win,unknown
27lelchgcvs2wpm7.asd3r3.top,unknown
27lelchgcvs2wpm7.b7mciu.top,unknown
27lelchgcvs2wpm7.bedrastic.bid,unknown
27lelchgcvs2wpm7.bestfordownload.click,unknown
27lelchgcvs2wpm7.bonbestal.asia,unknown
27lelchgcvs2wpm7.fm0cga.top,unknown
27lelchgcvs2wpm7.h9ihx3.top,unknown
27lelchgcvs2wpm7.laverhants.link,unknown
27lelchgcvs2wpm7.liopakerb.black,unknown
27lelchgcvs2wpm7.marksgain.kim,unknown
27lelchgcvs2wpm7.nfgpeb.top,unknown
27lelchgcvs2wpm7.redefined.click,unknown
27lelchgcvs2wpm7.rt4e34.win,unknown
27lelchgcvs2wpm7.tankbe.pro,unknown
27lelchgcvs2wpm7.thyx30.top,unknown
27lelchgcvs2wpm7.uboys5.top,unknown
27lelchgcvs2wpm7.vrid8l.top,unknown
27lelchgcvs2wpm7.wins4n.win,unknown
27lelchgcvs2wpm7.wishsends.mobi,unknown
27lelchgcvs2wpm7.xkfi59.top,unknown
27lelchgcvs2wpm7.xmvr54.top,unknown
2bdfb.spinakrosa.at,unknown
2gdb4.leoraorage.at,unknown
2ymh2gnnbg6pgq2r.gremsot.pl,unknown
2ymh2gnnbg6pgq2r.winregion.tw,unknown
32kl2rwsjvqjeui7.onion.cab,unknown
32kl2rwsjvqjeui7.onion.to,unknown
32kl2rwsjvqjeui7.tor2web.org,unknown
37kddsserrt.xyz,unknown
3qbyaoohkcqkzrz6.bestxprice.ch,unknown
3qbyaoohkcqkzrz6.livecamshow.ch,unknown
3qbyaoohkcqkzrz6.torclassik.li,unknown
3qbyaoohkcqkzrz6.torcommunity.ch,unknown
3qbyaoohkcqkzrz6.tordonator.li,unknown
3qbyaoohkcqkzrz6.tordoor.li,unknown
3qbyaoohkcqkzrz6.torgate.es,unknown
3qbyaoohkcqkzrz6.torgateway.li,unknown
3qbyaoohkcqkzrz6.tormain.li,unknown
3qbyaoohkcqkzrz6.tormaster.ch,unknown
3qbyaoohkcqkzrz6.tormaster.fr,unknown
3qbyaoohkcqkzrz6.torplanet.eu,unknown
3qbyaoohkcqkzrz6.torprovider.li,unknown
3qbyaoohkcqkzrz6.torreactor.li,unknown
3qbyaoohkcqkzrz6.torstation.li,unknown
4kqd3hmqgptupi3p.0vgu64.top,unknown
4kqd3hmqgptupi3p.143h2a.top,unknown
4kqd3hmqgptupi3p.1tvjk1.top,unknown
4kqd3hmqgptupi3p.1zp109.bid,unknown
4kqd3hmqgptupi3p.249isv.bid,unknown
4kqd3hmqgptupi3p.2y4t6f.bid,unknown
4kqd3hmqgptupi3p.3arvfd.top,unknown
4kqd3hmqgptupi3p.3lhjyx.top,unknown
4kqd3hmqgptupi3p.43wjor.top,unknown
4kqd3hmqgptupi3p.4j11jt.bid,unknown
4kqd3hmqgptupi3p.4k9xlx.top,unknown
4kqd3hmqgptupi3p.5b4ej6.bid,unknown
4kqd3hmqgptupi3p.5ctoeb.bid,unknown
4kqd3hmqgptupi3p.62er3d.top,unknown
4kqd3hmqgptupi3p.6h03gw.top,unknown
4kqd3hmqgptupi3p.6j7jcn.bid,unknown
4kqd3hmqgptupi3p.6ntrb6.top,unknown
4kqd3hmqgptupi3p.6ogy3i.top,unknown
4kqd3hmqgptupi3p.7w9p1n.bid,unknown
4kqd3hmqgptupi3p.859rkn.top,unknown
4kqd3hmqgptupi3p.8kcfnk.bid,unknown
4kqd3hmqgptupi3p.91006j.bid,unknown
4kqd3hmqgptupi3p.9ildst.top,unknown
4kqd3hmqgptupi3p.a0g0o7.bid,unknown
4kqd3hmqgptupi3p.adevf4.top,unknown
4kqd3hmqgptupi3p.anypicked.red,unknown
4kqd3hmqgptupi3p.as5su5.top,unknown
4kqd3hmqgptupi3p.asfall.in,unknown
4kqd3hmqgptupi3p.athere.in,unknown
4kqd3hmqgptupi3p.b7mciu.top,unknown
4kqd3hmqgptupi3p.barberryshin.casa,unknown
4kqd3hmqgptupi3p.bestergo.pw,unknown
4kqd3hmqgptupi3p.bigfooters.loan,unknown
4kqd3hmqgptupi3p.bnctf6.top,unknown
4kqd3hmqgptupi3p.bookjumps.us,unknown
4kqd3hmqgptupi3p.boxsame.kim,unknown
4kqd3hmqgptupi3p.boxtimed.gdn,unknown
4kqd3hmqgptupi3p.breakown.loan,unknown
4kqd3hmqgptupi3p.byeraser.lol,unknown
4kqd3hmqgptupi3p.carrygain.kim,unknown
4kqd3hmqgptupi3p.cfu46r.bid,unknown
4kqd3hmqgptupi3p.chargecar.vip,unknown
4kqd3hmqgptupi3p.choiceher.win,unknown
4kqd3hmqgptupi3p.clockhate.loan,unknown
4kqd3hmqgptupi3p.cm5ohx.bid,unknown
4kqd3hmqgptupi3p.csv7o6.bid,unknown
4kqd3hmqgptupi3p.cutslifes.bid,unknown
4kqd3hmqgptupi3p.dd4xo3.top,unknown
4kqd3hmqgptupi3p.dkrie7.top,unknown
4kqd3hmqgptupi3p.dmvute.top,unknown
4kqd3hmqgptupi3p.dozensby.loan,unknown
4kqd3hmqgptupi3p.easyits.black,unknown
4kqd3hmqgptupi3p.effortany.win,unknown
4kqd3hmqgptupi3p.endsdoubt.loan,unknown
4kqd3hmqgptupi3p.eventeach.gdn,unknown
4kqd3hmqgptupi3p.ezm0r5.top,unknown
4kqd3hmqgptupi3p.f0jlbj.bid,unknown
4kqd3hmqgptupi3p.fairlies.link,unknown
4kqd3hmqgptupi3p.foodtopic.mobi,unknown
4kqd3hmqgptupi3p.g7kcux.bid,unknown
4kqd3hmqgptupi3p.gameswarm.loan,unknown
4kqd3hmqgptupi3p.gapplayed.link,unknown
4kqd3hmqgptupi3p.getsbug.kim,unknown
4kqd3hmqgptupi3p.gg4dgp.bid,unknown
4kqd3hmqgptupi3p.gio6f6.bid,unknown
4kqd3hmqgptupi3p.gletterstan.trade,unknown
4kqd3hmqgptupi3p.goodslet.win,unknown
4kqd3hmqgptupi3p.goshare.red,unknown
4kqd3hmqgptupi3p.gs2ka7.top,unknown
4kqd3hmqgptupi3p.he81tz.bid,unknown
4kqd3hmqgptupi3p.heardbids.date,unknown
4kqd3hmqgptupi3p.heldbegun.kim,unknown
4kqd3hmqgptupi3p.hessale.pw,unknown
4kqd3hmqgptupi3p.holescase.pw,unknown
4kqd3hmqgptupi3p.homehuge.top,unknown
4kqd3hmqgptupi3p.hotcopies.bid,unknown
4kqd3hmqgptupi3p.inforcing.pw,unknown
4kqd3hmqgptupi3p.insystem.men,unknown
4kqd3hmqgptupi3p.itdrink.club,unknown
4kqd3hmqgptupi3p.ix1upt.bid,unknown
4kqd3hmqgptupi3p.jal9lk.bid,unknown
4kqd3hmqgptupi3p.k7oud1.top,unknown
4kqd3hmqgptupi3p.kml2o2.top,unknown
4kqd3hmqgptupi3p.l6k4x7.bid,unknown
4kqd3hmqgptupi3p.laterugly.win,unknown
4kqd3hmqgptupi3p.liescale.in,unknown
4kqd3hmqgptupi3p.liesshall.bid,unknown
4kqd3hmqgptupi3p.lobulz.bid,unknown
4kqd3hmqgptupi3p.lorrydo.lol,unknown
4kqd3hmqgptupi3p.masterany.red,unknown
4kqd3hmqgptupi3p.meetbinds.pw,unknown
4kqd3hmqgptupi3p.metmet.win,unknown
4kqd3hmqgptupi3p.metpast.site,unknown
4kqd3hmqgptupi3p.mi3596.bid,unknown
4kqd3hmqgptupi3p.mtxtul.top,unknown
4kqd3hmqgptupi3p.mustspace.us,unknown
4kqd3hmqgptupi3p.myaddress.link,unknown
4kqd3hmqgptupi3p.namefalls.pro,unknown
4kqd3hmqgptupi3p.nameuser.site,unknown
4kqd3hmqgptupi3p.nearlybut.us,unknown
4kqd3hmqgptupi3p.needmight.win,unknown
4kqd3hmqgptupi3p.newrange.link,unknown
4kqd3hmqgptupi3p.nextask.loan,unknown
4kqd3hmqgptupi3p.nh47ri.bid,unknown
4kqd3hmqgptupi3p.nxmu0x.bid,unknown
4kqd3hmqgptupi3p.o8hpwj.top,unknown
4kqd3hmqgptupi3p.outputon.asia,unknown
4kqd3hmqgptupi3p.ownamount.pro,unknown
4kqd3hmqgptupi3p.p79b8l.bid,unknown
4kqd3hmqgptupi3p.pairsraw.loan,unknown
4kqd3hmqgptupi3p.pap44w.top,unknown
4kqd3hmqgptupi3p.powersno.link,unknown
4kqd3hmqgptupi3p.pushstory.bid,unknown
4kqd3hmqgptupi3p.r21wmw.top,unknown
4kqd3hmqgptupi3p.rsi6gn.top,unknown
4kqd3hmqgptupi3p.salethe.gdn,unknown
4kqd3hmqgptupi3p.sayssales.bid,unknown
4kqd3hmqgptupi3p.scoreable.bid,unknown
4kqd3hmqgptupi3p.seemby.loan,unknown
4kqd3hmqgptupi3p.sel7rg.bid,unknown
4kqd3hmqgptupi3p.selfcrash.site,unknown
4kqd3hmqgptupi3p.sentowing.trade,unknown
4kqd3hmqgptupi3p.sitcalls.us,unknown
4kqd3hmqgptupi3p.sk8r54.top,unknown
4kqd3hmqgptupi3p.somegave.info,unknown
4kqd3hmqgptupi3p.stageend.link,unknown
4kqd3hmqgptupi3p.stopsage.gdn,unknown
4kqd3hmqgptupi3p.storingus.gdn,unknown
4kqd3hmqgptupi3p.tankplain.date,unknown
4kqd3hmqgptupi3p.termprior.men,unknown
4kqd3hmqgptupi3p.themevery.win,unknown
4kqd3hmqgptupi3p.thyx30.top,unknown
4kqd3hmqgptupi3p.tieslaws.link,unknown
4kqd3hmqgptupi3p.todaynine.loan,unknown
4kqd3hmqgptupi3p.twz1ga.top,unknown
4kqd3hmqgptupi3p.uwckha.top,unknown
4kqd3hmqgptupi3p.v11z5e.top,unknown
4kqd3hmqgptupi3p.valueshes.bid,unknown
4kqd3hmqgptupi3p.variedtax.kim,unknown
4kqd3hmqgptupi3p.vkm4l6.top,unknown
4kqd3hmqgptupi3p.wallluck.date,unknown
4kqd3hmqgptupi3p.whmykv.bid,unknown
4kqd3hmqgptupi3p.wins4n.top,unknown
4kqd3hmqgptupi3p.wz139z.top,unknown
4kqd3hmqgptupi3p.xmfru5.top,unknown
4kqd3hmqgptupi3p.y12acl.bid,unknown
4kqd3hmqgptupi3p.y5j7e6.top,unknown
4kqd3hmqgptupi3p.yg767p.bid,unknown
4kqd3hmqgptupi3p.yoursdoor.lol,unknown
4kqd3hmqgptupi3p.z8ijgn.bid,unknown
4kqd3hmqgptupi3p.z97f9v.bid,unknown
4rebaopfgrewe.top,unknown
4w5wihkwyhsav2ha.dreamtest.at,unknown
4w5wihkwyhsav2ha.fastdances.at,unknown
4w5wihkwyhsav2ha.grandhaus.at,unknown
4w5wihkwyhsav2ha.payfactor.at,unknown
52uo5k3t73ypjije.01fake.bid,unknown
52uo5k3t73ypjije.086ux2.top,unknown
52uo5k3t73ypjije.0n5joc.top,unknown
52uo5k3t73ypjije.0nyi6l.bid,unknown
52uo5k3t73ypjije.0vgu64.top,unknown
52uo5k3t73ypjije.11pmnz.top,unknown
52uo5k3t73ypjije.1bipa9.top,unknown
52uo5k3t73ypjije.1de02r.top,unknown
52uo5k3t73ypjije.1f1dw3.bid,unknown
52uo5k3t73ypjije.1g0vo2.bid,unknown
52uo5k3t73ypjije.1pma4t.bid,unknown
52uo5k3t73ypjije.1ufr2v.bid,unknown
52uo5k3t73ypjije.209kai.bid,unknown
52uo5k3t73ypjije.249isv.bid,unknown
52uo5k3t73ypjije.26lpul.bid,unknown
52uo5k3t73ypjije.2gbbja.top,unknown
52uo5k3t73ypjije.2llgoy.bid,unknown
52uo5k3t73ypjije.2y4t6f.bid,unknown
52uo5k3t73ypjije.2ym6om.bid,unknown
52uo5k3t73ypjije.31wkhu.top,unknown
52uo5k3t73ypjije.33dofy.top,unknown
52uo5k3t73ypjije.35u068.bid,unknown
52uo5k3t73ypjije.3di24a.top,unknown
52uo5k3t73ypjije.3gpdgx.bid,unknown
52uo5k3t73ypjije.3lhjyx.top,unknown
52uo5k3t73ypjije.3rr6ao.top,unknown
52uo5k3t73ypjije.3zotov.bid,unknown
52uo5k3t73ypjije.40wiai.top,unknown
52uo5k3t73ypjije.43l7lm.bid,unknown
52uo5k3t73ypjije.43wjor.top,unknown
52uo5k3t73ypjije.495iru.top,unknown
52uo5k3t73ypjije.4jub4e.bid,unknown
52uo5k3t73ypjije.4k9xlx.top,unknown
52uo5k3t73ypjije.4n592s.top,unknown
52uo5k3t73ypjije.4nf7ij.top,unknown
52uo5k3t73ypjije.4oyhvh.top,unknown
52uo5k3t73ypjije.4pjetv.bid,unknown
52uo5k3t73ypjije.4xiiup.bid,unknown
52uo5k3t73ypjije.4yl1hr.bid,unknown
52uo5k3t73ypjije.4ynpjd.top,unknown
52uo5k3t73ypjije.50cs7p.bid,unknown
52uo5k3t73ypjije.56185u.bid,unknown
52uo5k3t73ypjije.5ctoeb.bid,unknown
52uo5k3t73ypjije.5ittco.bid,unknown
52uo5k3t73ypjije.5kb3dl.top,unknown
52uo5k3t73ypjije.5o4bjf.bid,unknown
52uo5k3t73ypjije.5tb8hy.bid,unknown
52uo5k3t73ypjije.5vhk5r.bid,unknown
52uo5k3t73ypjije.5zxii2.bid,unknown
52uo5k3t73ypjije.62er3d.top,unknown
52uo5k3t73ypjije.68xmf9.bid,unknown
52uo5k3t73ypjije.6ec2xb.bid,unknown
52uo5k3t73ypjije.6j7jcn.bid,unknown
52uo5k3t73ypjije.6w3rkc.bid,unknown
52uo5k3t73ypjije.7156et.bid,unknown
52uo5k3t73ypjije.7asel7.top,unknown
52uo5k3t73ypjije.7j6htz.bid,unknown
52uo5k3t73ypjije.7jiff7.top,unknown
52uo5k3t73ypjije.7ud98m.bid,unknown
52uo5k3t73ypjije.7wrwp4.top,unknown
52uo5k3t73ypjije.80yabh.bid,unknown
52uo5k3t73ypjije.86rhzr.bid,unknown
52uo5k3t73ypjije.8a0sf6.top,unknown
52uo5k3t73ypjije.8cjlyt.bid,unknown
52uo5k3t73ypjije.8hphyr.top,unknown
52uo5k3t73ypjije.8i8dt4.top,unknown
52uo5k3t73ypjije.8kcfnk.bid,unknown
52uo5k3t73ypjije.8rrxd9.bid,unknown
52uo5k3t73ypjije.8rxv74.bid,unknown
52uo5k3t73ypjije.91006j.bid,unknown
52uo5k3t73ypjije.94ycl8.bid,unknown
52uo5k3t73ypjije.95ovzy.top,unknown
52uo5k3t73ypjije.9bjnlk.bid,unknown
52uo5k3t73ypjije.9cd81s.bid,unknown
52uo5k3t73ypjije.9ildst.top,unknown
52uo5k3t73ypjije.9kxz23.bid,unknown
52uo5k3t73ypjije.9nj8ex.top,unknown
52uo5k3t73ypjije.9sfrr0.bid,unknown
52uo5k3t73ypjije.9tftgh.bid,unknown
52uo5k3t73ypjije.a0g0o7.bid,unknown
52uo5k3t73ypjije.a2uzpe.top,unknown
52uo5k3t73ypjije.aclox4.bid,unknown
52uo5k3t73ypjije.ahvshc.top,unknown
52uo5k3t73ypjije.ai7hur.bid,unknown
52uo5k3t73ypjije.ajolkg.bid,unknown
52uo5k3t73ypjije.aryh7f.bid,unknown
52uo5k3t73ypjije.asxjdp.top,unknown
52uo5k3t73ypjije.b2s4ch.bid,unknown
52uo5k3t73ypjije.b7mciu.top,unknown
52uo5k3t73ypjije.b8ll6n.top,unknown
52uo5k3t73ypjije.bar8sc.bid,unknown
52uo5k3t73ypjije.bcjl1h.top,unknown
52uo5k3t73ypjije.bipa9k.bid,unknown
52uo5k3t73ypjije.bipnnp.bid,unknown
52uo5k3t73ypjije.bj9eea.bid,unknown
52uo5k3t73ypjije.bnctf6.top,unknown
52uo5k3t73ypjije.bp9mn8.bid,unknown
52uo5k3t73ypjije.bt7r70.top,unknown
52uo5k3t73ypjije.c3fz3z.bid,unknown
52uo5k3t73ypjije.c7ex9n.top,unknown
52uo5k3t73ypjije.catfills.mobi,unknown
52uo5k3t73ypjije.cc0r87.bid,unknown
52uo5k3t73ypjije.cfu46r.bid,unknown
52uo5k3t73ypjije.cjc2jn.top,unknown
52uo5k3t73ypjije.cm5ohx.bid,unknown
52uo5k3t73ypjije.cm898n.bid,unknown
52uo5k3t73ypjije.cmfkru.top,unknown
52uo5k3t73ypjije.cpvwgx.bid,unknown
52uo5k3t73ypjije.csdbnk.bid,unknown
52uo5k3t73ypjije.csj0k5.top,unknown
52uo5k3t73ypjije.csv7o6.bid,unknown
52uo5k3t73ypjije.cto5ee.bid,unknown
52uo5k3t73ypjije.czzg7f.bid,unknown
52uo5k3t73ypjije.daigy0.top,unknown
52uo5k3t73ypjije.das34.com,unknown
52uo5k3t73ypjije.dd4xo3.top,unknown
52uo5k3t73ypjije.ddwub3.top,unknown
52uo5k3t73ypjije.deg5xr.top,unknown
52uo5k3t73ypjije.dkrie7.top,unknown
52uo5k3t73ypjije.dkriur.top,unknown
52uo5k3t73ypjije.dkro3u.top,unknown
52uo5k3t73ypjije.dmrueo.top,unknown
52uo5k3t73ypjije.dmvute.top,unknown
52uo5k3t73ypjije.dsv023.bid,unknown
52uo5k3t73ypjije.dvuybv.bid,unknown
52uo5k3t73ypjije.e32d1o.bid,unknown
52uo5k3t73ypjije.e6in0v.top,unknown
52uo5k3t73ypjije.e78hjo.bid,unknown
52uo5k3t73ypjije.e8hua8.top,unknown
52uo5k3t73ypjije.ei9evn.top,unknown
52uo5k3t73ypjije.en3oyw.bid,unknown
52uo5k3t73ypjije.eoivrm.bid,unknown
52uo5k3t73ypjije.ep493u.top,unknown
52uo5k3t73ypjije.er05vm.bid,unknown
52uo5k3t73ypjije.ezm0r5.top,unknown
52uo5k3t73ypjije.f0jlbj.bid,unknown
52uo5k3t73ypjije.f242v5.bid,unknown
52uo5k3t73ypjije.f3z72p.bid,unknown
52uo5k3t73ypjije.fe98iy.top,unknown
52uo5k3t73ypjije.fi50le.bid,unknown
52uo5k3t73ypjije.fkgrie.top,unknown
52uo5k3t73ypjije.g0ots2.top,unknown
52uo5k3t73ypjije.g0spln.bid,unknown
52uo5k3t73ypjije.g5196b.bid,unknown
52uo5k3t73ypjije.gg4dgp.bid,unknown
52uo5k3t73ypjije.gio6f6.bid,unknown
52uo5k3t73ypjije.givxuf.bid,unknown
52uo5k3t73ypjije.gmnjz7.bid,unknown
52uo5k3t73ypjije.gnee6i.top,unknown
52uo5k3t73ypjije.gnuvaw.bid,unknown
52uo5k3t73ypjije.goztus.bid,unknown
52uo5k3t73ypjije.gpy3tc.top,unknown
52uo5k3t73ypjije.gtnfgj.top,unknown
52uo5k3t73ypjije.gu7eao.bid,unknown
52uo5k3t73ypjije.gvoafg.bid,unknown
52uo5k3t73ypjije.h3ss4t.bid,unknown
52uo5k3t73ypjije.hawtzr.bid,unknown
52uo5k3t73ypjije.hbd7m4.bid,unknown
52uo5k3t73ypjije.hhc366.bid,unknown
52uo5k3t73ypjije.hlu8yz.top,unknown
52uo5k3t73ypjije.hossy3.bid,unknown
52uo5k3t73ypjije.hv42mo.bid,unknown
52uo5k3t73ypjije.i5cgcw.top,unknown
52uo5k3t73ypjije.i6gn9s.bid,unknown
52uo5k3t73ypjije.i8zh1k.bid,unknown
52uo5k3t73ypjije.iait3w.bid,unknown
52uo5k3t73ypjije.ibngww.top,unknown
52uo5k3t73ypjije.ie7t8k.top,unknown
52uo5k3t73ypjije.ih9te2.bid,unknown
52uo5k3t73ypjije.ij0cia.bid,unknown
52uo5k3t73ypjije.imhhwm.top,unknown
52uo5k3t73ypjije.insystem.men,unknown
52uo5k3t73ypjije.izyclz.bid,unknown
52uo5k3t73ypjije.j8873f.bid,unknown
52uo5k3t73ypjije.j92msu.top,unknown
52uo5k3t73ypjije.jal9lk.bid,unknown
52uo5k3t73ypjije.jg6jtw.top,unknown
52uo5k3t73ypjije.js43vy.bid,unknown
52uo5k3t73ypjije.k0dcd2.bid,unknown
52uo5k3t73ypjije.k21zey.bid,unknown
52uo5k3t73ypjije.k56185.top,unknown
52uo5k3t73ypjije.k7oud1.top,unknown
52uo5k3t73ypjije.k8ytej.bid,unknown
52uo5k3t73ypjije.k9z7pm.top,unknown
52uo5k3t73ypjije.ka0te8.top,unknown
52uo5k3t73ypjije.kas17.com,unknown
52uo5k3t73ypjije.kcufx4.top,unknown
52uo5k3t73ypjije.kml2o2.top,unknown
52uo5k3t73ypjije.kswcuk.top,unknown
52uo5k3t73ypjije.kt70uk.bid,unknown
52uo5k3t73ypjije.ku824r.bid,unknown
52uo5k3t73ypjije.kwnw1b.bid,unknown
52uo5k3t73ypjije.kyjw0g.bid,unknown
52uo5k3t73ypjije.kzhzuc.top,unknown
52uo5k3t73ypjije.kzo8mc.top,unknown
52uo5k3t73ypjije.kzwor6.top,unknown
52uo5k3t73ypjije.l6ry3h.bid,unknown
52uo5k3t73ypjije.laugk2.top,unknown
52uo5k3t73ypjije.lba61x.top,unknown
52uo5k3t73ypjije.ldsl8m.bid,unknown
52uo5k3t73ypjije.lethints.date,unknown
52uo5k3t73ypjije.lh9ax3.bid,unknown
52uo5k3t73ypjije.li8wfu.bid,unknown
52uo5k3t73ypjije.lib2vi.top,unknown
52uo5k3t73ypjije.lio2wr.bid,unknown
52uo5k3t73ypjije.loanshown.info,unknown
52uo5k3t73ypjije.lrraca.bid,unknown
52uo5k3t73ypjije.lwbi59.top,unknown
52uo5k3t73ypjije.m33d4b.bid,unknown
52uo5k3t73ypjije.m5fgoi.top,unknown
52uo5k3t73ypjije.m6j75a.bid,unknown
52uo5k3t73ypjije.mbwxyg.bid,unknown
52uo5k3t73ypjije.mfgb1h.top,unknown
52uo5k3t73ypjije.mn1kms.bid,unknown
52uo5k3t73ypjije.msu96b.top,unknown
52uo5k3t73ypjije.mtxtul.top,unknown
52uo5k3t73ypjije.myurv5.bid,unknown
52uo5k3t73ypjije.n41n1a.top,unknown
52uo5k3t73ypjije.n6kswi.top,unknown
52uo5k3t73ypjije.n8niwa.bid,unknown
52uo5k3t73ypjije.nb83bp.bid,unknown
52uo5k3t73ypjije.neekll.bid,unknown
52uo5k3t73ypjije.nh47ri.bid,unknown
52uo5k3t73ypjije.nmapwy.bid,unknown
52uo5k3t73ypjije.nxmu0x.bid,unknown
52uo5k3t73ypjije.o08a6d.top,unknown
52uo5k3t73ypjije.o0hwme.bid,unknown
52uo5k3t73ypjije.o5xcnd.bid,unknown
52uo5k3t73ypjije.o6fa2g.bid,unknown
52uo5k3t73ypjije.o8hpwj.bid,unknown
52uo5k3t73ypjije.o8hpwj.top,unknown
52uo5k3t73ypjije.o9w43w.bid,unknown
52uo5k3t73ypjije.oef1sh.bid,unknown
52uo5k3t73ypjije.ojesoa.bid,unknown
52uo5k3t73ypjije.ojx58b.bid,unknown
52uo5k3t73ypjije.omrexj.top,unknown
52uo5k3t73ypjije.ooulp2.bid,unknown
52uo5k3t73ypjije.ovpgod.top,unknown
52uo5k3t73ypjije.p0lxvm.bid,unknown
52uo5k3t73ypjije.p2lsgr.top,unknown
52uo5k3t73ypjije.p5dxeh.bid,unknown
52uo5k3t73ypjije.pap44w.top,unknown
52uo5k3t73ypjije.pfija1.bid,unknown
52uo5k3t73ypjije.pop81.com,unknown
52uo5k3t73ypjije.poplenjohs.review,unknown
52uo5k3t73ypjije.pr2zwz.bid,unknown
52uo5k3t73ypjije.r21wmw.top,unknown
52uo5k3t73ypjije.r2ok0b.bid,unknown
52uo5k3t73ypjije.r4z3o5.bid,unknown
52uo5k3t73ypjije.rdmwha.bid,unknown
52uo5k3t73ypjije.red4is.top,unknown
52uo5k3t73ypjije.rexjyp.bid,unknown
52uo5k3t73ypjije.rgdk0u.top,unknown
52uo5k3t73ypjije.rl0bdw.top,unknown
52uo5k3t73ypjije.rnkj09.top,unknown
52uo5k3t73ypjije.rv50gt.bid,unknown
52uo5k3t73ypjije.s2xb1s.bid,unknown
52uo5k3t73ypjije.sdfztr.bid,unknown
52uo5k3t73ypjije.self56.top,unknown
52uo5k3t73ypjije.sg62es.top,unknown
52uo5k3t73ypjije.skri59.top,unknown
52uo5k3t73ypjije.snwy26.top,unknown
52uo5k3t73ypjije.sotn58.bid,unknown
52uo5k3t73ypjije.srmlzh.bid,unknown
52uo5k3t73ypjije.ssh3ln.bid,unknown
52uo5k3t73ypjije.sx90yk.bid,unknown
52uo5k3t73ypjije.sxjdpg.bid,unknown
52uo5k3t73ypjije.thyx30.top,unknown
52uo5k3t73ypjije.ti4wic.top,unknown
52uo5k3t73ypjije.to6maq.top,unknown
52uo5k3t73ypjije.twz1ga.top,unknown
52uo5k3t73ypjije.txszfs.top,unknown
52uo5k3t73ypjije.tzgwdf.top,unknown
52uo5k3t73ypjije.u2r7tm.bid,unknown
52uo5k3t73ypjije.u36ik0.bid,unknown
52uo5k3t73ypjije.u50s89.bid,unknown
52uo5k3t73ypjije.ujtwhg.top,unknown
52uo5k3t73ypjije.ul8ib9.bid,unknown
52uo5k3t73ypjije.un8niw.top,unknown
52uo5k3t73ypjije.uv39h5.bid,unknown
52uo5k3t73ypjije.uw3r6a.top,unknown
52uo5k3t73ypjije.uw7w05.bid,unknown
52uo5k3t73ypjije.uwazu7.bid,unknown
52uo5k3t73ypjije.uwckha.bid,unknown
52uo5k3t73ypjije.uwckha.top,unknown
52uo5k3t73ypjije.ux93ip.top,unknown
52uo5k3t73ypjije.v11z5e.top,unknown
52uo5k3t73ypjije.v9y6z8.bid,unknown
52uo5k3t73ypjije.veupl2.top,unknown
52uo5k3t73ypjije.vkm4l6.top,unknown
52uo5k3t73ypjije.vkslju.bid,unknown
52uo5k3t73ypjije.vlo18w.bid,unknown
52uo5k3t73ypjije.vmotsf.bid,unknown
52uo5k3t73ypjije.vor28o.bid,unknown
52uo5k3t73ypjije.vt3dg6.bid,unknown
52uo5k3t73ypjije.w6sj06.bid,unknown
52uo5k3t73ypjije.w8yolm.bid,unknown
52uo5k3t73ypjije.wg00sp.bid,unknown
52uo5k3t73ypjije.whmykv.bid,unknown
52uo5k3t73ypjije.whosewine.lol,unknown
52uo5k3t73ypjije.wht5py.top,unknown
52uo5k3t73ypjije.wins4n.win,unknown
52uo5k3t73ypjije.wl52rt.bid,unknown
52uo5k3t73ypjije.wrd4fo.top,unknown
52uo5k3t73ypjije.ws1uet.top,unknown
52uo5k3t73ypjije.wz139z.top,unknown
52uo5k3t73ypjije.x2kl7t.top,unknown
52uo5k3t73ypjije.x3nnbd.top,unknown
52uo5k3t73ypjije.x7fylp.bid,unknown
52uo5k3t73ypjije.x9a6yb.bid,unknown
52uo5k3t73ypjije.x9kjcn.bid,unknown
52uo5k3t73ypjije.x9le66.top,unknown
52uo5k3t73ypjije.xab7m0.top,unknown
52uo5k3t73ypjije.xglk6h.bid,unknown
52uo5k3t73ypjije.xjb384.bid,unknown
52uo5k3t73ypjije.xmfru5.top,unknown
52uo5k3t73ypjije.xtppp8.bid,unknown
52uo5k3t73ypjije.y12acl.bid,unknown
52uo5k3t73ypjije.y5j7e6.top,unknown
52uo5k3t73ypjije.ye42cp.bid,unknown
52uo5k3t73ypjije.yg767p.bid,unknown
52uo5k3t73ypjije.yn8krm.bid,unknown
52uo5k3t73ypjije.yrd7v5.bid,unknown
52uo5k3t73ypjije.yty0gm.bid,unknown
52uo5k3t73ypjije.yv7l4b.top,unknown
52uo5k3t73ypjije.yw4629.top,unknown
52uo5k3t73ypjije.ywszbe.bid,unknown
52uo5k3t73ypjije.z6a7f1.bid,unknown
52uo5k3t73ypjije.z8ijgn.bid,unknown
52uo5k3t73ypjije.z97f9v.bid,unknown
52uo5k3t73ypjije.zclw5i.top,unknown
52uo5k3t73ypjije.zcwrhe.bid,unknown
52uo5k3t73ypjije.zd3p2g.top,unknown
52uo5k3t73ypjije.zda7bk.top,unknown
52uo5k3t73ypjije.zed84j.bid,unknown
52uo5k3t73ypjije.zhvlh1.bid,unknown
52uo5k3t73ypjije.zxtezv.bid,unknown
52uo5k3t73ypjije.zzis8p.bid,unknown
5rport45vcdef345adfkksawe.bematvocal.at,unknown
6dtxgqam4crv6rr6.onion.cab,unknown
6g4ds.froekuge.com,unknown
74nfnjhlq45nkgws4hbdbk45wekfjhqw4talefgnv.curryfort.at,unknown
88fga.ketteaero.com,unknown
8b4bb47tiaolhy4uhhlfaqerg.sofarany.at,unknown
94dbhbj3l4blaeyfgl7q45glbaer.giponfeste.at,unknown
974gfbjhb23hbfkyfaby3byqlyuebvly5q254y.mendilobo.com,unknown
9hrds.wolfcrap.at,unknown
a64gfdsjhb4htbiwaysbdvukyft5q.zobodine.at,unknown
aa12111.top,unknown
aarnknthc.xyz,unknown
abvtqhwodwjmi.work,unknown
acbstypdrijslr.ru,unknown
accemfsqovkd.pw,unknown
acjhwpdjhlhbncf.click,unknown
aechjic.pw,unknown
ahsqbeospcdrngfv.info,unknown
ahuqfrqk54v3vnzj.1vcxfn.bid,unknown
ahuqfrqk54v3vnzj.45yu0p.bid,unknown
ahuqfrqk54v3vnzj.4h16v3.top,unknown
ahuqfrqk54v3vnzj.6avw2a.bid,unknown
ahuqfrqk54v3vnzj.7y1266.top,unknown
ahuqfrqk54v3vnzj.8kiec2.top,unknown
ahuqfrqk54v3vnzj.9sfk22.bid,unknown
ahuqfrqk54v3vnzj.bds4sn.top,unknown
ahuqfrqk54v3vnzj.bz7k7l.top,unknown
ahuqfrqk54v3vnzj.c8jxpp.top,unknown
ahuqfrqk54v3vnzj.cb3pul.top,unknown
ahuqfrqk54v3vnzj.dxzr2l.top,unknown
ahuqfrqk54v3vnzj.ewg6uf.bid,unknown
ahuqfrqk54v3vnzj.g4dc5s.bid,unknown
ahuqfrqk54v3vnzj.h4lu4i.bid,unknown
ahuqfrqk54v3vnzj.i81wik.bid,unknown
ahuqfrqk54v3vnzj.kj3f52.bid,unknown
ahuqfrqk54v3vnzj.l7g2sv.bid,unknown
ahuqfrqk54v3vnzj.n3oyw7.bid,unknown
ahuqfrqk54v3vnzj.roep3o.top,unknown
ahuqfrqk54v3vnzj.sg9lxh.bid,unknown
ahuqfrqk54v3vnzj.tjubo1.top,unknown
ahuqfrqk54v3vnzj.u9fcji.bid,unknown
ahuqfrqk54v3vnzj.uzeb6r.bid,unknown
ahuqfrqk54v3vnzj.v5neyw.bid,unknown
ahuqfrqk54v3vnzj.vgxcci.top,unknown
ahuqfrqk54v3vnzj.x90yk1.bid,unknown
ahuqfrqk54v3vnzj.xs2xeh.bid,unknown
ahuqfrqk54v3vnzj.zn90h4.bid,unknown
ampjsppmftmfdblpt.info,unknown
anbqjdoyw6wkmpeu.oldtrees.at,unknown
applesnoutsthings.bid,unknown
aqmip.fr,unknown
arddxjkwrp.xyz,unknown
as3ws.fopyirr.com,unknown
avsxrcoq2q5fgrw2.13inb1.top,unknown
avsxrcoq2q5fgrw2.17vj7b.top,unknown
avsxrcoq2q5fgrw2.199ovv.top,unknown
avsxrcoq2q5fgrw2.1gtx3p.top,unknown
avsxrcoq2q5fgrw2.1mwipu.top,unknown
avsxrcoq2q5fgrw2.1nsnuh.top,unknown
avsxrcoq2q5fgrw2.2wfe60.top,unknown
avsxrcoq2q5fgrw2.5m2n7x.top,unknown
avsxrcoq2q5fgrw2.5s96fr.top,unknown
avsxrcoq2q5fgrw2.79j8fm.top,unknown
avsxrcoq2q5fgrw2.8l4jpw.top,unknown
avsxrcoq2q5fgrw2.9c431m.bid,unknown
avsxrcoq2q5fgrw2.arpbxw.top,unknown
avsxrcoq2q5fgrw2.ayjy5d.top,unknown
avsxrcoq2q5fgrw2.dgjpgy.top,unknown
avsxrcoq2q5fgrw2.et7izd.top,unknown
avsxrcoq2q5fgrw2.ewg6uf.bid,unknown
avsxrcoq2q5fgrw2.h44l3d.bid,unknown
avsxrcoq2q5fgrw2.ihuk7s.top,unknown
avsxrcoq2q5fgrw2.j4cser.bid,unknown
avsxrcoq2q5fgrw2.lbxvhk.top,unknown
avsxrcoq2q5fgrw2.lxvmhm.top,unknown
avsxrcoq2q5fgrw2.nbz4dn.top,unknown
avsxrcoq2q5fgrw2.p93w1x.bid,unknown
avsxrcoq2q5fgrw2.r1sjrp.top,unknown
avsxrcoq2q5fgrw2.rys9pj.top,unknown
avsxrcoq2q5fgrw2.tjdup0.top,unknown
avsxrcoq2q5fgrw2.uunmkj.top,unknown
avsxrcoq2q5fgrw2.vestjb.top,unknown
avsxrcoq2q5fgrw2.vofy7f.top,unknown
avsxrcoq2q5fgrw2.w22p3v.top,unknown
avsxrcoq2q5fgrw2.w5hilw.top,unknown
avsxrcoq2q5fgrw2.wgx4go.top,unknown
avsxrcoq2q5fgrw2.y1fx4w.top,unknown
avsxrcoq2q5fgrw2.y9kxz2.bid,unknown
avsxrcoq2q5fgrw2.yr1h37.top,unknown
avsxrcoq2q5fgrw2.z0mkoc.top,unknown
avsxrcoq2q5fgrw2.zi842m.bid,unknown
avxdypmdbo.pw,unknown
axnemuevqnstqyflb.work,unknown
b4youfred5485jgsa3453f.italazudda.com,unknown
barjhxoye.info,unknown
bciuemfaapyf.biz,unknown
bddadevlpkwrrmud.xyz,unknown
bfd45u8ehdklrfqwlhbhjbgqw.niptana.at,unknown
bkdjvmmkwgkvgw.su,unknown
blxbymhjva.info,unknown
bnjhx.eu,unknown
bqbbsfdw.be,unknown
bqukfjfv.org,unknown
bwcfinnt.work,unknown
bwpegsfa.info,unknown
bxlrywuuobje.pw,unknown
cdxbbpngq.pw,unknown
cerberhhyed5frqa.305iot.top,unknown
cerberhhyed5frqa.305iot.win,unknown
cerberhhyed5frqa.45gf4t.win,unknown
cerberhhyed5frqa.45kgok.win,unknown
cerberhhyed5frqa.5kti58.win,unknown
cerberhhyed5frqa.ad34ft.win,unknown
cerberhhyed5frqa.adevf4.win,unknown
cerberhhyed5frqa.alri58.win,unknown
cerberhhyed5frqa.as13fd.win,unknown
cerberhhyed5frqa.asxce4.win,unknown
cerberhhyed5frqa.azlto5.win,unknown
cerberhhyed5frqa.cmr95i.top,unknown
cerberhhyed5frqa.cmr95i.win,unknown
cerberhhyed5frqa.cmti5o.win,unknown
cerberhhyed5frqa.cneo59.top,unknown
cerberhhyed5frqa.cneo59.win,unknown
cerberhhyed5frqa.dk59jg.win,unknown
cerberhhyed5frqa.dkrti5.top,unknown
cerberhhyed5frqa.er48rt.win,unknown
cerberhhyed5frqa.fgfid6.win,unknown
cerberhhyed5frqa.fkr84i.win,unknown
cerberhhyed5frqa.fkri48.win,unknown
cerberhhyed5frqa.gkfit9.top,unknown
cerberhhyed5frqa.gkfit9.win,unknown
cerberhhyed5frqa.kipfgs65s.com,unknown
cerberhhyed5frqa.lfotp5.top,unknown
cerberhhyed5frqa.li4loi.win,unknown
cerberhhyed5frqa.lib2vi.win,unknown
cerberhhyed5frqa.m5fgoi.win,unknown
cerberhhyed5frqa.m5gid4.top,unknown
cerberhhyed5frqa.m5gid4.win,unknown
cerberhhyed5frqa.m5gips.win,unknown
cerberhhyed5frqa.mix3hi.win,unknown
cerberhhyed5frqa.moneu5.win,unknown
cerberhhyed5frqa.oneswi.win,unknown
cerberhhyed5frqa.qor499.top,unknown
cerberhhyed5frqa.raress.win,unknown
cerberhhyed5frqa.sdfiso.win,unknown
cerberhhyed5frqa.sims6n.win,unknown
cerberhhyed5frqa.ti4wic.win,unknown
cerberhhyed5frqa.to6maq.win,unknown
cerberhhyed5frqa.vmfu48.win,unknown
cerberhhyed5frqa.we34re.top,unknown
cerberhhyed5frqa.we34re.win,unknown
cerberhhyed5frqa.werti4.win,unknown
cerberhhyed5frqa.wet4io.win,unknown
cerberhhyed5frqa.wewiso.win,unknown
cerberhhyed5frqa.workju.win,unknown
cerberhhyed5frqa.xltnet.win,unknown
cerberhhyed5frqa.xmfhr6.win,unknown
cerberhhyed5frqa.xmfir0.top,unknown
cerberhhyed5frqa.xmfir0.win,unknown
cerberhhyed5frqa.xmfjr7.top,unknown
cerberhhyed5frqa.xmfkr8.top,unknown
cerberhhyed5frqa.xmfu59.win,unknown
cerberhhyed5frqa.xo59ok.win,unknown
cerberhhyed5frqa.xtrvb4.win,unknown
cerberhhyed5frqa.zgf48j.win,unknown
chromebewfk.top,unknown
citointechnologiesalefor.top,unknown
clhyelmwnuqhigecp.pw,unknown
corefitness.info,unknown
cpawdrtxfjkwrkkl.pw,unknown
cpyrltela.pw,unknown
crosseunity.top,unknown
cudcfybkk.pw,unknown
cwprfpjtmjb.biz,unknown
cxlgwofgrjfoaa.info,unknown
d34fa.lasmeio.com,unknown
dd7bsndhr45nfksdnkferfer.javakale.at,unknown
de2nuvwegoo32oqv.torbook.li,unknown
de2nuvwegoo32oqv.tordrims.li,unknown
de2nuvwegoo32oqv.torfigth.li,unknown
de2nuvwegoo32oqv.tormilki.li,unknown
de2nuvwegoo32oqv.torminimals.li,unknown
de2nuvwegoo32oqv.torspaces.li,unknown
de2nuvwegoo32oqv.tortelevision.li,unknown
de2nuvwegoo32oqv.tortodorf.li,unknown
de2nuvwegoo32oqv.torworks.li,unknown
dkoipg.pw,unknown
dltvwp.it,unknown
dmwajvm.fr,unknown
dolfexalto.com,unknown
domainstop.top,unknown
dqtfhkgskushlum.org,unknown
dtojlhpasjk.pw,unknown
dvmbtgoobxcc.pw,unknown
dwytqrgblrynsgtew.org,unknown
dyoravdkiavfkbkx.pw,unknown
earthspiruitr.top,unknown
eaxpifdtwsv.biz,unknown
ecjfdaqmmyusxntwl.work,unknown
egerdpkvutvodmtsy.pw,unknown
egovrxvuspxck.be,unknown
eoalsoub.pw,unknown
eppilxqwyqdhmpdsn.pw,unknown
eqtrtdavtnr.pw,unknown
euduudaehipk.pw,unknown
exnqhgk.xyz,unknown
eypdxikxsufj.pw,unknown
eywlmqugxx.info,unknown
f4dsbjhb45wfiuqeib4fkqeg.meccaledgy.at,unknown
f5xraa2y2ybtrefz.onion.to,unknown
fdehgchykmiqwdg.info,unknown
ffoqr3ug7m726zou.04hyxg.top,unknown
ffoqr3ug7m726zou.0v7hry.bid,unknown
ffoqr3ug7m726zou.1321z6.top,unknown
ffoqr3ug7m726zou.13inb1.top,unknown
ffoqr3ug7m726zou.14gmtu.top,unknown
ffoqr3ug7m726zou.17vj7b.top,unknown
ffoqr3ug7m726zou.1967qy.top,unknown
ffoqr3ug7m726zou.1feasu.top,unknown
ffoqr3ug7m726zou.1gtx3p.top,unknown
ffoqr3ug7m726zou.1mwipu.top,unknown
ffoqr3ug7m726zou.1nsnuh.top,unknown
ffoqr3ug7m726zou.2fu7bc.top,unknown
ffoqr3ug7m726zou.2msuuj.top,unknown
ffoqr3ug7m726zou.2rl0pv.top,unknown
ffoqr3ug7m726zou.4tkb0d.top,unknown
ffoqr3ug7m726zou.5e4u7d.bid,unknown
ffoqr3ug7m726zou.5hmjh7.bid,unknown
ffoqr3ug7m726zou.5m2n7x.top,unknown
ffoqr3ug7m726zou.735giv.top,unknown
ffoqr3ug7m726zou.8uvtsg.top,unknown
ffoqr3ug7m726zou.9yim37.top,unknown
ffoqr3ug7m726zou.ac7zvz.top,unknown
ffoqr3ug7m726zou.b31wkh.bid,unknown
ffoqr3ug7m726zou.b4abvx.top,unknown
ffoqr3ug7m726zou.bd7tlu.top,unknown
ffoqr3ug7m726zou.bdlvdy.top,unknown
ffoqr3ug7m726zou.bpuhab.top,unknown
ffoqr3ug7m726zou.bwei9h.top,unknown
ffoqr3ug7m726zou.ca15sj.top,unknown
ffoqr3ug7m726zou.do9wwg.top,unknown
ffoqr3ug7m726zou.e1e7w2.top,unknown
ffoqr3ug7m726zou.efebgv.top,unknown
ffoqr3ug7m726zou.f5x6ws.top,unknown
ffoqr3ug7m726zou.ffsm1a.bid,unknown
ffoqr3ug7m726zou.gwz8gh.top,unknown
ffoqr3ug7m726zou.hajw7w.bid,unknown
ffoqr3ug7m726zou.hpwom3.top,unknown
ffoqr3ug7m726zou.hy6dxo.bid,unknown
ffoqr3ug7m726zou.hzrekn.top,unknown
ffoqr3ug7m726zou.i4ucg2.bid,unknown
ffoqr3ug7m726zou.iocvou.top,unknown
ffoqr3ug7m726zou.jye7lt.top,unknown
ffoqr3ug7m726zou.kfymbh.top,unknown
ffoqr3ug7m726zou.l4dlll.bid,unknown
ffoqr3ug7m726zou.l6r7i9.top,unknown
ffoqr3ug7m726zou.lc1xfc.top,unknown
ffoqr3ug7m726zou.le6611.bid,unknown
ffoqr3ug7m726zou.lruwth.top,unknown
ffoqr3ug7m726zou.m3cvi8.top,unknown
ffoqr3ug7m726zou.momg04.top,unknown
ffoqr3ug7m726zou.ndnmuk.top,unknown
ffoqr3ug7m726zou.ptnbfm.top,unknown
ffoqr3ug7m726zou.rssh3l.bid,unknown
ffoqr3ug7m726zou.rxmbsm.top,unknown
ffoqr3ug7m726zou.rzt69n.top,unknown
ffoqr3ug7m726zou.rzvhne.top,unknown
ffoqr3ug7m726zou.s611js.top,unknown
ffoqr3ug7m726zou.sg9lxh.bid,unknown
ffoqr3ug7m726zou.smd95z.top,unknown
ffoqr3ug7m726zou.tsrwj3.top,unknown
ffoqr3ug7m726zou.tx0igu.bid,unknown
ffoqr3ug7m726zou.u9fcji.bid,unknown
ffoqr3ug7m726zou.ud9z0v.top,unknown
ffoqr3ug7m726zou.ukswcu.bid,unknown
ffoqr3ug7m726zou.umvv28.top,unknown
ffoqr3ug7m726zou.utebcd.top,unknown
ffoqr3ug7m726zou.v0xn1i.bid,unknown
ffoqr3ug7m726zou.vjso7r.top,unknown
ffoqr3ug7m726zou.w22p3v.top,unknown
ffoqr3ug7m726zou.w67y8u.bid,unknown
ffoqr3ug7m726zou.wf912u.bid,unknown
ffoqr3ug7m726zou.wmvsh0.top,unknown
ffoqr3ug7m726zou.wwa4tu.top,unknown
ffoqr3ug7m726zou.wx2n44.top,unknown
ffoqr3ug7m726zou.x8p2m7.bid,unknown
ffoqr3ug7m726zou.x9ap4h.top,unknown
ffoqr3ug7m726zou.xe1ws1.top,unknown
ffoqr3ug7m726zou.y9kxz2.bid,unknown
ffoqr3ug7m726zou.yjo0z9.top,unknown
ffoqr3ug7m726zou.yur4j5.top,unknown
ffoqr3ug7m726zou.yv3uwa.bid,unknown
ffoqr3ug7m726zou.zee0xr.top,unknown
ffoqr3ug7m726zou.zio9yg.bid,unknown
ffoqr3ug7m726zou.zjfbxy.top,unknown
ffoqr3ug7m726zou.zkxb17.top,unknown
ffoqr3ug7m726zou.zn90h4.bid,unknown
ffoqr3ug7m726zou.zpjpsf.top,unknown
ffoqr3ug7m726zou.zu3fzc.bid,unknown
fhvjsmtkirihxh.xyz,unknown
fitga.ru,unknown
fmirgordkhig.xyz,unknown
fnarsipfqe.pw,unknown
fnjyygovdjyemga.xyz,unknown
fnmi62725zfti2vy.13inb1.top,unknown
fnmi62725zfti2vy.17vj7b.top,unknown
fnmi62725zfti2vy.1gtx3p.top,unknown
fnmi62725zfti2vy.o08ra6.top,unknown
fnmi62725zfti2vy.p9wol3.top,unknown
fnmi62725zfti2vy.vwgxhm.bid,unknown
fooplodanx.top,unknown
fpashgkepwtoqdjg.pw,unknown
fqoapcjolfwwenqx.pw,unknown
fqtdrnqmeofknd.biz,unknown
ftoxmpdipwobp4qy.10nzk9.top,unknown
ftoxmpdipwobp4qy.17vj7b.top,unknown
ftoxmpdipwobp4qy.199ovv.top,unknown
ftoxmpdipwobp4qy.1gtx3p.top,unknown
ftoxmpdipwobp4qy.1nsnuh.top,unknown
ftoxmpdipwobp4qy.7pnxn9.top,unknown
ftoxmpdipwobp4qy.lxvmhm.top,unknown
fuuasvhpsvuihlnje.pw,unknown
fuuwnsv.pw,unknown
fyqtguo.biz,unknown
g4dhhg53jsdjnnkjwjrfyiouh3o4u4th.vinerteen.com,unknown
gccxqpuuylioxoip.pw,unknown
gfcuxnaek.ru,unknown
gfkuwflbhsjdabnu4nfukerfqwlfwr4rw.ringbalor.com,unknown
gfwncoyhbdvggns.pw,unknown
gguaxufrt.pw,unknown
gitybdjgbxd.nl,unknown
glhxgchhfemcjgr.pw,unknown
gnsquwmgukkpgpt.pw,unknown
govementruystd.top,unknown
gsebqsi.ru,unknown
gsmdqrmqddqtuv.xyz,unknown
gvludcvhcrjwmgq.in,unknown
gwbak.nickymaru.com,unknown
gwe32fdr74bhfsyujb34gfszfv.zatcurr.com,unknown
h3ds4.maconslab.com,unknown
h54dc.leverdaze.at,unknown
h5nuwefkuh134ljngkasdbasfg.corolbugan.com,unknown
hjhqmbxyinislkkt.11bwgu.top,unknown
hjhqmbxyinislkkt.127axt.top,unknown
hjhqmbxyinislkkt.12bsy8.top,unknown
hjhqmbxyinislkkt.12bxp9.top,unknown
hjhqmbxyinislkkt.12ct4c.top,unknown
hjhqmbxyinislkkt.12gsjz.top,unknown
hjhqmbxyinislkkt.12m58x.top,unknown
hjhqmbxyinislkkt.12zucf.top,unknown
hjhqmbxyinislkkt.13bcem.top,unknown
hjhqmbxyinislkkt.13eymq.top,unknown
hjhqmbxyinislkkt.13fmby.top,unknown
hjhqmbxyinislkkt.13khiv.top,unknown
hjhqmbxyinislkkt.13kn4l.top,unknown
hjhqmbxyinislkkt.13qgdd.top,unknown
hjhqmbxyinislkkt.13ydzv.top,unknown
hjhqmbxyinislkkt.142djp.top,unknown
hjhqmbxyinislkkt.14dr1s.top,unknown
hjhqmbxyinislkkt.14klmz.top,unknown
hjhqmbxyinislkkt.14o2wp.top,unknown
hjhqmbxyinislkkt.14stvt.top,unknown
hjhqmbxyinislkkt.14yppf.top,unknown
hjhqmbxyinislkkt.15e8hv.top,unknown
hjhqmbxyinislkkt.15mwt4.top,unknown
hjhqmbxyinislkkt.15u3kg.top,unknown
hjhqmbxyinislkkt.16ke1t.top,unknown
hjhqmbxyinislkkt.16l1zt.top,unknown
hjhqmbxyinislkkt.17kc8y.top,unknown
hjhqmbxyinislkkt.17rm9b.top,unknown
hjhqmbxyinislkkt.18f5bw.top,unknown
hjhqmbxyinislkkt.18lmhb.top,unknown
hjhqmbxyinislkkt.18nepv.top,unknown
hjhqmbxyinislkkt.18yzmj.top,unknown
hjhqmbxyinislkkt.18zrup.top,unknown
hjhqmbxyinislkkt.19b6nk.top,unknown
hjhqmbxyinislkkt.19hj4f.top,unknown
hjhqmbxyinislkkt.19s7gy.top,unknown
hjhqmbxyinislkkt.19xdpm.top,unknown
hjhqmbxyinislkkt.19xvyd.top,unknown
hjhqmbxyinislkkt.1a2xx3.top,unknown
hjhqmbxyinislkkt.1a8u1r.top,unknown
hjhqmbxyinislkkt.1aajb7.top,unknown
hjhqmbxyinislkkt.1aamtz.top,unknown
hjhqmbxyinislkkt.1accfa.top,unknown
hjhqmbxyinislkkt.1acfka.top,unknown
hjhqmbxyinislkkt.1adh2r.top,unknown
hjhqmbxyinislkkt.1aq4sz.top,unknown
hjhqmbxyinislkkt.1aqq5k.top,unknown
hjhqmbxyinislkkt.1b8tmn.top,unknown
hjhqmbxyinislkkt.1bas8q.top,unknown
hjhqmbxyinislkkt.1bcnad.top,unknown
hjhqmbxyinislkkt.1bcxcs.top,unknown
hjhqmbxyinislkkt.1bu9xu.top,unknown
hjhqmbxyinislkkt.1c1ajf.top,unknown
hjhqmbxyinislkkt.1cdqfv.top,unknown
hjhqmbxyinislkkt.1cnkik.top,unknown
hjhqmbxyinislkkt.1csesc.top,unknown
hjhqmbxyinislkkt.1dq6nd.top,unknown
hjhqmbxyinislkkt.1dvqvh.top,unknown
hjhqmbxyinislkkt.1e47tj.top,unknown
hjhqmbxyinislkkt.1eagrj.top,unknown
hjhqmbxyinislkkt.1eeyaj.top,unknown
hjhqmbxyinislkkt.1efxa8.top,unknown
hjhqmbxyinislkkt.1fgsmc.top,unknown
hjhqmbxyinislkkt.1fnjrj.top,unknown
hjhqmbxyinislkkt.1fttxm.top,unknown
hjhqmbxyinislkkt.1fy93v.top,unknown
hjhqmbxyinislkkt.1fygsg.top,unknown
hjhqmbxyinislkkt.1fzjn3.top,unknown
hjhqmbxyinislkkt.1fzz7a.top,unknown
hjhqmbxyinislkkt.1gjpzp.top,unknown
hjhqmbxyinislkkt.1gqrpq.top,unknown
hjhqmbxyinislkkt.1gredn.top,unknown
hjhqmbxyinislkkt.1grvue.top,unknown
hjhqmbxyinislkkt.1gswwp.top,unknown
hjhqmbxyinislkkt.1gu5um.top,unknown
hjhqmbxyinislkkt.1gunao.top,unknown
hjhqmbxyinislkkt.1gvyo8.top,unknown
hjhqmbxyinislkkt.1gxfxt.top,unknown
hjhqmbxyinislkkt.1gzjuc.top,unknown
hjhqmbxyinislkkt.1hapca.top,unknown
hjhqmbxyinislkkt.1j43kf.top,unknown
hjhqmbxyinislkkt.1jmip6.top,unknown
hjhqmbxyinislkkt.1jnhdc.top,unknown
hjhqmbxyinislkkt.1jwuaa.top,unknown
hjhqmbxyinislkkt.1k6bas.top,unknown
hjhqmbxyinislkkt.1kge5a.top,unknown
hjhqmbxyinislkkt.1khwro.top,unknown
hjhqmbxyinislkkt.1kjhhf.top,unknown
hjhqmbxyinislkkt.1kraqn.top,unknown
hjhqmbxyinislkkt.1kw51p.top,unknown
hjhqmbxyinislkkt.1lqrja.top,unknown
hjhqmbxyinislkkt.1ltyev.top,unknown
hjhqmbxyinislkkt.1mat7v.top,unknown
hjhqmbxyinislkkt.1mee2x.top,unknown
hjhqmbxyinislkkt.1mqvsc.top,unknown
hjhqmbxyinislkkt.1mswjm.top,unknown
hjhqmbxyinislkkt.1mvku2.top,unknown
hjhqmbxyinislkkt.1mwvgh.top,unknown
hjhqmbxyinislkkt.1nm62r.top,unknown
hjhqmbxyinislkkt.1npg9s.top,unknown
hjhqmbxyinislkkt.1ntyds.top,unknown
hjhqmbxyinislkkt.1pcvko.top,unknown
hjhqmbxyinislkkt.1ppto6.top,unknown
hjhqmbxyinislkkt.1pxbfh.top,unknown
hjhqmbxyinislkkt.1q7pwb.top,unknown
hjhqmbxyinislkkt.1qjl23.top,unknown
hjhqmbxyinislkkt.1qk2un.top,unknown
hjhqmbxyinislkkt.1w5iy8.top,unknown
hjhqmbxyinislkkt.1xynaz.top,unknown
hmndhdbscgru.pw,unknown
honourableud.top,unknown
hppfsslyeyseudg.biz,unknown
hrfgd74nfksjdcnnklnwefvdsf.materdunst.com,unknown
htankds.info,unknown
hycninyxuaa.xyz,unknown
i01001.dgn.vn,unknown
i3ezlvkoi7fwyood.onion.to,unknown
i3ezlvkoi7fwyood.tor2web.org,unknown
i5ndw.titlecorta.at,unknown
ibjgnqsthdyp.pw,unknown
ibtfqftkgi.pw,unknown
ifohvkxmyp.biz,unknown
igoodsnd.wang,unknown
ik4dm.mazerunci.at,unknown
iqfyujpvubwawc.pw,unknown
irhng84nfaslbv243ljtblwqjrb.pinnafaon.at,unknown
irudhkunrlfu25fhkaqw34blr5qlby4tgq43t.orrisbirth.com,unknown
iuieylpvfurcvmpk.pw,unknown
jfmiondv.xyz,unknown
jghbktqepe.pw,unknown
jhdgh.club,unknown
jhomitevd2abj3fk.onion.to,unknown
juhacjacjckclqf.pw,unknown
jxqdry.ru,unknown
jymhmkdaxfbl.click,unknown
k234s.ascotsprue.com,unknown
k34ew.keyedgell.com,unknown
k3cxd.pileanoted.com,unknown
k47d3.proporr.com,unknown
k4restportgonst34d23r.oftpony.at,unknown
kbv5s.kylepasse.at,unknown
kcdfajaxngiff.info,unknown
kciylimohteftc.pw,unknown
kh5jfnvkk5twerfnku5twuilrnglnuw45yhlw.vealsithe.com,unknown
kjkwjqvqrjocpi.xyz,unknown
kkd47eh4hdjshb5t.angortra.at,unknown
kkr4hbwdklf234bfl84uoqleflqwrfqwuelfh.brazabaya.com,unknown
kpybuhnosdrm.in,unknown
kqlxtqptsmys.in,unknown
ks,unknown
ktlgpiilbj.biz,unknown
kwontdmplpnbl.pw,unknown
kypsuw.pw,unknown
l123d.feustude.at,unknown
lcrdceiajmiar.org,unknown
lfdachijzuwx4bc4.0ndl3j.bid,unknown
lfdachijzuwx4bc4.6szfn7.top,unknown
lfdachijzuwx4bc4.83zw1f.bid,unknown
lfdachijzuwx4bc4.8dlgyg.bid,unknown
lfdachijzuwx4bc4.af38vz.top,unknown
lfdachijzuwx4bc4.ci221p.top,unknown
lfdachijzuwx4bc4.djintc.bid,unknown
lfdachijzuwx4bc4.e6cf2t.bid,unknown
lfdachijzuwx4bc4.eujvrw.bid,unknown
lfdachijzuwx4bc4.ev99l6.bid,unknown
lfdachijzuwx4bc4.ex9n9v.top,unknown
lfdachijzuwx4bc4.fe6cf2.top,unknown
lfdachijzuwx4bc4.fwzxnb.bid,unknown
lfdachijzuwx4bc4.iuzppd.top,unknown
lfdachijzuwx4bc4.le2brr.bid,unknown
lfdachijzuwx4bc4.m7f27y.bid,unknown
lfdachijzuwx4bc4.twyjdx.bid,unknown
lfdachijzuwx4bc4.tx0igu.bid,unknown
lfdachijzuwx4bc4.u9fcji.bid,unknown
lfdachijzuwx4bc4.vrgdrs.top,unknown
lfdachijzuwx4bc4.w4629d.top,unknown
lfdachijzuwx4bc4.x4tk5c.bid,unknown
lfdachijzuwx4bc4.zreknv.bid,unknown
lollyoff.info,unknown
lookingpersonals.top,unknown
lpholfnvwbukqwye.onion.cab,unknown
lpholfnvwbukqwye.onion.to,unknown
lrmficvqs.pw,unknown
ltpwqva.xyz,unknown
luvenxj.uk,unknown
lvanwwbyabcfevyi.pw,unknown
lyrnvane.pw,unknown
macooptwafkwchtpo.pw,unknown
mmhmtea.pw,unknown
mphtadhci5mrdlju.onion.to,unknown
mphtadhci5mrdlju.tor2web.org,unknown
muuojcu.xyz,unknown
mwqwverayognn.pw,unknown
mxyfasm.pw,unknown
mz7oyb3v32vshcvk.bidobject.li,unknown
mz7oyb3v32vshcvk.getstar.li,unknown
mz7oyb3v32vshcvk.torapples.li,unknown
mz7oyb3v32vshcvk.torlongor.li,unknown
mz7oyb3v32vshcvk.tormidle.at,unknown
mz7oyb3v32vshcvk.toysworlds.at,unknown
newgiftnd.wang,unknown
newgiftst.top,unknown
nhhyxorxbxarxe.org,unknown
nikessysleys.top,unknown
nlpqflkbvkdde.eu,unknown
nn54djhfnrnm4dnjnerfsd.replylaten.at,unknown
nnrtsdf34dsjhb23rsdf.spannflow.com,unknown
nwcpgymgh.work,unknown
o4dm3.leaama.at,unknown
odgtnkmq.pw,unknown
oehknf74ohqlfnpq9rhfgcq93g.hateflux.com,unknown
ohpbdikmrrhr.pw,unknown
ohplsuljopekq.biz,unknown
ojmekzw4mujvqeju.bioserv.at,unknown
ojmekzw4mujvqeju.dreamtest.at,unknown
ojmekzw4mujvqeju.fineboy.at,unknown
ojmekzw4mujvqeju.minitili.at,unknown
omeaswslhgdw.xyz,unknown
oqwygprskqv65j72.12kb9j.top,unknown
oqwygprskqv65j72.13gpqd.top,unknown
oqwygprskqv65j72.13rdvu.top,unknown
oqwygprskqv65j72.14jqyo.top,unknown
oqwygprskqv65j72.17q8f6.top,unknown
oqwygprskqv65j72.1aj1bb.top,unknown
oqwygprskqv65j72.1d88b8.top,unknown
oqwygprskqv65j72.1dofqx.top,unknown
oqwygprskqv65j72.1fdlhn.top,unknown
oqwygprskqv65j72.1fs9pz.top,unknown
oqwygprskqv65j72.1gam57.top,unknown
oqwygprskqv65j72.1gqj8x.top,unknown
oqwygprskqv65j72.1hbdbx.top,unknown
oqwygprskqv65j72.1j1x2b.top,unknown
oqwygprskqv65j72.1jquw7.top,unknown
oqwygprskqv65j72.1kh9ct.top,unknown
oqwygprskqv65j72.1mudaw.top,unknown
oqwygprskqv65j72.1nzpby.top,unknown
ozfin.ru,unknown
p27dokhpz2n7nvgr.12a63k.top,unknown
p27dokhpz2n7nvgr.12c8ff.top,unknown
p27dokhpz2n7nvgr.12gzrv.top,unknown
p27dokhpz2n7nvgr.12hxjv.top,unknown
p27dokhpz2n7nvgr.12nwsv.top,unknown
p27dokhpz2n7nvgr.12smak.top,unknown
p27dokhpz2n7nvgr.12t3rn.top,unknown
p27dokhpz2n7nvgr.12ulcz.top,unknown
p27dokhpz2n7nvgr.12umzf.top,unknown
p27dokhpz2n7nvgr.12uzfa.top,unknown
p27dokhpz2n7nvgr.12vpkc.top,unknown
p27dokhpz2n7nvgr.1321z6.top,unknown
p27dokhpz2n7nvgr.133chr.top,unknown
p27dokhpz2n7nvgr.135nt3.top,unknown
p27dokhpz2n7nvgr.13g2v9.top,unknown
p27dokhpz2n7nvgr.13gmvm.top,unknown
p27dokhpz2n7nvgr.13ixv2.top,unknown
p27dokhpz2n7nvgr.13upky.top,unknown
p27dokhpz2n7nvgr.13upnc.top,unknown
p27dokhpz2n7nvgr.13wm9b.top,unknown
p27dokhpz2n7nvgr.13xwn9.top,unknown
p27dokhpz2n7nvgr.14ewqv.top,unknown
p27dokhpz2n7nvgr.14gmtu.top,unknown
p27dokhpz2n7nvgr.14kfoz.top,unknown
p27dokhpz2n7nvgr.14udep.top,unknown
p27dokhpz2n7nvgr.15jznv.top,unknown
p27dokhpz2n7nvgr.15l2ub.top,unknown
p27dokhpz2n7nvgr.15nhsf.top,unknown
p27dokhpz2n7nvgr.15oqwp.top,unknown
p27dokhpz2n7nvgr.15rnwa.top,unknown
p27dokhpz2n7nvgr.15wmdx.top,unknown
p27dokhpz2n7nvgr.168w5y.top,unknown
p27dokhpz2n7nvgr.16ay2s.top,unknown
p27dokhpz2n7nvgr.16bwhs.top,unknown
p27dokhpz2n7nvgr.16fohp.top,unknown
p27dokhpz2n7nvgr.16nxpn.top,unknown
p27dokhpz2n7nvgr.16qpet.top,unknown
p27dokhpz2n7nvgr.173w9w.top,unknown
p27dokhpz2n7nvgr.17g6gc.top,unknown
p27dokhpz2n7nvgr.17gvad.top,unknown
p27dokhpz2n7nvgr.17m14u.top,unknown
p27dokhpz2n7nvgr.17ryrs.top,unknown
p27dokhpz2n7nvgr.17u2yg.top,unknown
p27dokhpz2n7nvgr.18dawg.top,unknown
p27dokhpz2n7nvgr.18kkhl.top,unknown
p27dokhpz2n7nvgr.18kmtt.top,unknown
p27dokhpz2n7nvgr.195heb.top,unknown
p27dokhpz2n7nvgr.1967qy.top,unknown
p27dokhpz2n7nvgr.1a7ivn.top,unknown
p27dokhpz2n7nvgr.1a7wnt.top,unknown
p27dokhpz2n7nvgr.1aghep.top,unknown
p27dokhpz2n7nvgr.1ajohk.top,unknown
p27dokhpz2n7nvgr.1apgrn.top,unknown
p27dokhpz2n7nvgr.1apkjn.top,unknown
p27dokhpz2n7nvgr.1aweql.top,unknown
p27dokhpz2n7nvgr.1axzcw.top,unknown
p27dokhpz2n7nvgr.1azkux.top,unknown
p27dokhpz2n7nvgr.1b3qjy.top,unknown
p27dokhpz2n7nvgr.1bj4k9.top,unknown
p27dokhpz2n7nvgr.1bniyw.top,unknown
p27dokhpz2n7nvgr.1bvadx.top,unknown
p27dokhpz2n7nvgr.1bywu2.top,unknown
p27dokhpz2n7nvgr.1bzolk.top,unknown
p27dokhpz2n7nvgr.1cauz3.top,unknown
p27dokhpz2n7nvgr.1cb19l.top,unknown
p27dokhpz2n7nvgr.1cbcpy.top,unknown
p27dokhpz2n7nvgr.1cewld.top,unknown
p27dokhpz2n7nvgr.1cggqc.top,unknown
p27dokhpz2n7nvgr.1cglxz.top,unknown
p27dokhpz2n7nvgr.1chy1m.top,unknown
p27dokhpz2n7nvgr.1cknbd.top,unknown
p27dokhpz2n7nvgr.1cpb4z.top,unknown
p27dokhpz2n7nvgr.1cpy1q.top,unknown
p27dokhpz2n7nvgr.1cq7gd.top,unknown
p27dokhpz2n7nvgr.1cvmb4.top,unknown
p27dokhpz2n7nvgr.1cw65b.top,unknown
p27dokhpz2n7nvgr.1czh7o.top,unknown
p27dokhpz2n7nvgr.1d8d9w.top,unknown
p27dokhpz2n7nvgr.1d8m97.top,unknown
p27dokhpz2n7nvgr.1daq6h.top,unknown
p27dokhpz2n7nvgr.1dlcbk.top,unknown
p27dokhpz2n7nvgr.1dp6un.top,unknown
p27dokhpz2n7nvgr.1dsdm4.top,unknown
p27dokhpz2n7nvgr.1dyzdh.top,unknown
p27dokhpz2n7nvgr.1dz7gk.top,unknown
p27dokhpz2n7nvgr.1ebvqb.top,unknown
p27dokhpz2n7nvgr.1eeb86.top,unknown
p27dokhpz2n7nvgr.1em2j4.top,unknown
p27dokhpz2n7nvgr.1enbyr.top,unknown
p27dokhpz2n7nvgr.1evjph.top,unknown
p27dokhpz2n7nvgr.1fel3k.top,unknown
p27dokhpz2n7nvgr.1fgywm.top,unknown
p27dokhpz2n7nvgr.1fqwek.top,unknown
p27dokhpz2n7nvgr.1fu8p3.top,unknown
p27dokhpz2n7nvgr.1gnlsi.top,unknown
p27dokhpz2n7nvgr.1gqqsc.top,unknown
p27dokhpz2n7nvgr.1gvql3.top,unknown
p27dokhpz2n7nvgr.1gy9bo.top,unknown
p27dokhpz2n7nvgr.1h23cc.top,unknown
p27dokhpz2n7nvgr.1hkjl3.top,unknown
p27dokhpz2n7nvgr.1hpvzl.top,unknown
p27dokhpz2n7nvgr.1hw36d.top,unknown
p27dokhpz2n7nvgr.1jemdr.top,unknown
p27dokhpz2n7nvgr.1jh5kv.top,unknown
p27dokhpz2n7nvgr.1jhnvt.top,unknown
p27dokhpz2n7nvgr.1jpb8w.top,unknown
p27dokhpz2n7nvgr.1js3tl.top,unknown
p27dokhpz2n7nvgr.1jw2lx.top,unknown
p27dokhpz2n7nvgr.1jyhqc.top,unknown
p27dokhpz2n7nvgr.1jzmjr.top,unknown
p27dokhpz2n7nvgr.1kja1j.top,unknown
p27dokhpz2n7nvgr.1kq4l8.top,unknown
p27dokhpz2n7nvgr.1ktjse.top,unknown
p27dokhpz2n7nvgr.1kyjw7.top,unknown
p27dokhpz2n7nvgr.1l4zyd.top,unknown
p27dokhpz2n7nvgr.1lcteo.top,unknown
p27dokhpz2n7nvgr.1lfyy4.top,unknown
p27dokhpz2n7nvgr.1lt2pn.top,unknown
p27dokhpz2n7nvgr.1m3xsy.top,unknown
p27dokhpz2n7nvgr.1mfakx.top,unknown
p27dokhpz2n7nvgr.1mfdt8.top,unknown
p27dokhpz2n7nvgr.1mir1h.top,unknown
p27dokhpz2n7nvgr.1ms2rx.top,unknown
p27dokhpz2n7nvgr.1mwipu.top,unknown
p27dokhpz2n7nvgr.1nhkou.top,unknown
p27dokhpz2n7nvgr.1nmrtq.top,unknown
p27dokhpz2n7nvgr.1nprob.top,unknown
p27dokhpz2n7nvgr.1p5fwl.top,unknown
p27dokhpz2n7nvgr.1pbfky.top,unknown
p27dokhpz2n7nvgr.1pbu64.top,unknown
p27dokhpz2n7nvgr.1pglcs.top,unknown
p27dokhpz2n7nvgr.1plugt.top,unknown
p27dokhpz2n7nvgr.1psts4.top,unknown
p27dokhpz2n7nvgr.1pymg3.top,unknown
p27dokhpz2n7nvgr.1vjnyh.top,unknown
p27dokhpz2n7nvgr.1wmvk2.top,unknown
p54dhkus4tlkfashdb6vjetgsdfg.greetingshere.at,unknown
pagaldaily.com,unknown
pdlbtnfhtoxghb.org,unknown
pe2cku7pebkpgeko.13inb1.top,unknown
pe2cku7pebkpgeko.199ovv.top,unknown
pe2cku7pebkpgeko.1cb19l.top,unknown
pe2cku7pebkpgeko.1gtx3p.top,unknown
pe2cku7pebkpgeko.1mwipu.top,unknown
pe2cku7pebkpgeko.1plugt.top,unknown
pe2cku7pebkpgeko.1pr21c.top,unknown
pe2cku7pebkpgeko.582h0n.top,unknown
pe2cku7pebkpgeko.5hmjh7.bid,unknown
pe2cku7pebkpgeko.ahovbr.top,unknown
pe2cku7pebkpgeko.bw9e2z.top,unknown
pe2cku7pebkpgeko.dj68hn.top,unknown
pe2cku7pebkpgeko.hclz73.top,unknown
pe2cku7pebkpgeko.kwrd4f.bid,unknown
pe2cku7pebkpgeko.p93w1x.bid,unknown
pe2cku7pebkpgeko.pkx86a.top,unknown
pe2cku7pebkpgeko.prbuoi.top,unknown
pe2cku7pebkpgeko.r1sjrp.top,unknown
pe2cku7pebkpgeko.reu88i.top,unknown
pe2cku7pebkpgeko.rjf9yn.top,unknown
pe2cku7pebkpgeko.tsrwj3.top,unknown
pe2cku7pebkpgeko.ttx0ig.top,unknown
pe2cku7pebkpgeko.utebcd.top,unknown
pe2cku7pebkpgeko.va3ibn.top,unknown
pe2cku7pebkpgeko.vfe2f1.top,unknown
pe2cku7pebkpgeko.yjo0z9.top,unknown
pe2cku7pebkpgeko.z5xfkc.top,unknown
pennysgoods.top,unknown
plfbvdrpvsm.pw,unknown
pmenboeqhyrpvomq.0nyi6l.bid,unknown
pmenboeqhyrpvomq.0vgu64.top,unknown
pmenboeqhyrpvomq.2agglf.top,unknown
pmenboeqhyrpvomq.4pzclh.top,unknown
pmenboeqhyrpvomq.58na23.top,unknown
pmenboeqhyrpvomq.5b1s82.top,unknown
pmenboeqhyrpvomq.7s0g3v.top,unknown
pmenboeqhyrpvomq.89m6y8.bid,unknown
pmenboeqhyrpvomq.8kcfnk.bid,unknown
pmenboeqhyrpvomq.9ildst.top,unknown
pmenboeqhyrpvomq.9nkxd3.top,unknown
pmenboeqhyrpvomq.a4coac.top,unknown
pmenboeqhyrpvomq.afteghonte.lol,unknown
pmenboeqhyrpvomq.as5su5.top,unknown
pmenboeqhyrpvomq.asxjdp.top,unknown
pmenboeqhyrpvomq.azwsxe.top,unknown
pmenboeqhyrpvomq.b7mciu.top,unknown
pmenboeqhyrpvomq.bnctf6.top,unknown
pmenboeqhyrpvomq.cmri58.top,unknown
pmenboeqhyrpvomq.e6in0v.top,unknown
pmenboeqhyrpvomq.enanhb.bid,unknown
pmenboeqhyrpvomq.factordo.site,unknown
pmenboeqhyrpvomq.fm0cga.top,unknown
pmenboeqhyrpvomq.g0ots2.top,unknown
pmenboeqhyrpvomq.gletterstan.trade,unknown
pmenboeqhyrpvomq.gnuvaw.bid,unknown
pmenboeqhyrpvomq.hasterlyston.cloud,unknown
pmenboeqhyrpvomq.hwh75t.top,unknown
pmenboeqhyrpvomq.ibngww.top,unknown
pmenboeqhyrpvomq.k7oud1.top,unknown
pmenboeqhyrpvomq.ka0te8.top,unknown
pmenboeqhyrpvomq.kswcuk.top,unknown
pmenboeqhyrpvomq.li4loi.top,unknown
pmenboeqhyrpvomq.loopsay.link,unknown
pmenboeqhyrpvomq.m54tkp.bid,unknown
pmenboeqhyrpvomq.mtxtul.top,unknown
pmenboeqhyrpvomq.n41n1a.top,unknown
pmenboeqhyrpvomq.n80yab.top,unknown
pmenboeqhyrpvomq.nh47ri.bid,unknown
pmenboeqhyrpvomq.o08a6d.top,unknown
pmenboeqhyrpvomq.o8hpwj.top,unknown
pmenboeqhyrpvomq.p8rruv.top,unknown
pmenboeqhyrpvomq.pap44w.top,unknown
pmenboeqhyrpvomq.paypoints.red,unknown
pmenboeqhyrpvomq.r21wmw.top,unknown
pmenboeqhyrpvomq.rnkj09.top,unknown
pmenboeqhyrpvomq.s71vsc.top,unknown
pmenboeqhyrpvomq.self56.top,unknown
pmenboeqhyrpvomq.shutlazy.casa,unknown
pmenboeqhyrpvomq.swissprogramms.bid,unknown
pmenboeqhyrpvomq.t4hvl4.bid,unknown
pmenboeqhyrpvomq.thyx30.top,unknown
pmenboeqhyrpvomq.txszfs.top,unknown
pmenboeqhyrpvomq.v11z5e.top,unknown
pmenboeqhyrpvomq.viceled.pw,unknown
pmenboeqhyrpvomq.vkm4l6.top,unknown
pmenboeqhyrpvomq.wn4h1k.top,unknown
pmenboeqhyrpvomq.wrd4fo.top,unknown
pmenboeqhyrpvomq.x1kofw.top,unknown
pmenboeqhyrpvomq.xneyvm.top,unknown
pmenboeqhyrpvomq.xx6jck.top,unknown
pmenboeqhyrpvomq.y5j7e6.top,unknown
pmenboeqhyrpvomq.y7fjr4.bid,unknown
pmenboeqhyrpvomq.yw4629.top,unknown
pnyviolg.eu,unknown
po4dbsjbneljhrlbvaueqrgveatv.bonmawp.at,unknown
poimoiyreque5.pw,unknown
polaerunity.top,unknown
ponmaredimare.top,unknown
pornohd24.com,unknown
preeqlultgfifg.pw,unknown
prest54538hnksjn4kjfwdbhwere.hotchunman.com,unknown
pts764gt354fder34fsqw45gdfsavadfgsfg.kraskula.com,unknown
pvwinlrmwvccuo.eu,unknown
qbqrfyeqqvcvv.pw,unknown
qcwbrevxrotoepsp.pw,unknown
qdesslfdcmd.pw,unknown
qdvkdyvrtpjc.pw,unknown
qfjhpgbefuhenjp7.1225wj.top,unknown
qfjhpgbefuhenjp7.12efwa.top,unknown
qfjhpgbefuhenjp7.12f53x.top,unknown
qfjhpgbefuhenjp7.12u5fl.top,unknown
qfjhpgbefuhenjp7.13iuvw.top,unknown
qfjhpgbefuhenjp7.143kzi.top,unknown
qfjhpgbefuhenjp7.158ugp.top,unknown
qfjhpgbefuhenjp7.16g9ub.top,unknown
qfjhpgbefuhenjp7.17cwdi.top,unknown
qfjhpgbefuhenjp7.17ipn9.top,unknown
qfjhpgbefuhenjp7.17xukb.top,unknown
qfjhpgbefuhenjp7.18dwag.top,unknown
qfjhpgbefuhenjp7.18ggbf.top,unknown
qfjhpgbefuhenjp7.18rkju.top,unknown
qfjhpgbefuhenjp7.19ckzf.top,unknown
qfjhpgbefuhenjp7.1a2jzy.top,unknown
qfjhpgbefuhenjp7.1cosak.top,unknown
qfjhpgbefuhenjp7.1e1jbc.top,unknown
qfjhpgbefuhenjp7.1e1y8p.top,unknown
qfjhpgbefuhenjp7.1fcfjn.top,unknown
qfjhpgbefuhenjp7.1jfjhb.top,unknown
qfjhpgbefuhenjp7.1jrkyn.top,unknown
qfjhpgbefuhenjp7.1mkwry.top,unknown
qfjhpgbefuhenjp7.1mnsg6.top,unknown
qfuxosx.eu,unknown
qlwnvdjwro.pw,unknown
qqonof.info,unknown
qqtphtlhny.pw,unknown
qsbfwgtedexirbyoq.pw,unknown
qvdgqayo.pw,unknown
rastypasty34.top,unknown
rbg4hfbilrf7to452p89hrfq.boonmower.com,unknown
rbwubtpsyokqn.info,unknown
real346real.top,unknown
remoteunityrety.top,unknown
renaulrtcenturytrick.top,unknown
rkiywansamtu.top,unknown
rolerxunitywsto.top,unknown
rootaleyz.top,unknown
rowerpovertort.top,unknown
rqfsctpgpuani.pw,unknown
rrcspgfghsjnklts.pw,unknown
rzss2zfue73dfvmj.onlinerpgame.ch,unknown
rzss2zfue73dfvmj.truewargame.ch,unknown
sdwempsovemtr.yt,unknown
seelkqtkkqxvq.click,unknown
semiconductry.top,unknown
sgowntfjwkybawi.pw,unknown
sgrnhwyqxdk.pw,unknown
sondr5344ygfweyjbfkw4fhsefv.heliofetch.at,unknown
sonicfopase.top,unknown
sqrgvbgfyya.org,unknown
sqsigig.pw,unknown
ssvylrn.pw,unknown
stevnxwq.pw,unknown
stgg5jv6mqiibmax.toradmin.li,unknown
stgg5jv6mqiibmax.toranimals.li,unknown
stgg5jv6mqiibmax.torbrouke.li,unknown
stgg5jv6mqiibmax.torclasses.li,unknown
stgg5jv6mqiibmax.torclever.li,unknown
stgg5jv6mqiibmax.torcreator.li,unknown
stgg5jv6mqiibmax.torking.li,unknown
stgg5jv6mqiibmax.torpice.li,unknown
stgg5jv6mqiibmax.torpoint.ch,unknown
stgg5jv6mqiibmax.torshop.li,unknown
sumnitdomains.top,unknown
svkjhguk.ru,unknown
svvgyjweurxn.click,unknown
swfqg.in,unknown
sxflmtgxerkpgwlnp.pw,unknown
t54ndnku456ngkwsudqer.wallymac.com,unknown
tdhyjfxltpj.pw,unknown
tes543berda73i48fsdfsd.keratadze.at,unknown
topgearspoilytyrdc.top,unknown
toxnwbkoulii.pw,unknown
toytyaclucomunit.top,unknown
tqlcjh.fr,unknown
tregretryfaltervipo.top,unknown
trxswbwxhr.xyz,unknown
tswsgajtwhqkosd.su,unknown
tt54rfdjhb34rfbnknaerg.milerteddy.com,unknown
ttoyqvq.pw,unknown
tuouyunittyewr.top,unknown
twbers4hmi6dc65f.onion.cab,unknown
twbers4hmi6dc65f.onion.to,unknown
twbers4hmi6dc65f.tor2web.org,unknown
u24er.ovaarmor.com,unknown
u54bbnhf354fbkh254tbkhjbgy8258gnkwerg.tahaplap.com,unknown
ubisortdasert.top,unknown
uetwvrlnee.fr,unknown
uhgmnigjpf.biz,unknown
uhhvhjqowpgopq.xyz,unknown
uhjxayhpisr.pw,unknown
uhufnlsad7bhf4ykqfbevmxergwrth.himfinn.com,unknown
uiredn4njfsa4234bafb32ygjdawfvs.frascuft.com,unknown
uj5nj.onanwhit.com,unknown
umjjvccteg.biz,unknown
unintyregullyar.top,unknown
unittogreas.top,unknown
unityharerteraz.top,unknown
unityrulesyur.top,unknown
unixbroungs.top,unknown
unocl45trpuoefft.054t69.bid,unknown
unocl45trpuoefft.06j7o0.top,unknown
unocl45trpuoefft.086ux2.top,unknown
unocl45trpuoefft.0evktl.top,unknown
unocl45trpuoefft.0kousz.bid,unknown
unocl45trpuoefft.0kv6tw.bid,unknown
unocl45trpuoefft.0vgu64.top,unknown
unocl45trpuoefft.18xhww.bid,unknown
unocl45trpuoefft.1cn41a.bid,unknown
unocl45trpuoefft.1de02r.top,unknown
unocl45trpuoefft.1v3bnu.top,unknown
unocl45trpuoefft.249isv.bid,unknown
unocl45trpuoefft.2y4t6f.bid,unknown
unocl45trpuoefft.308an1.top,unknown
unocl45trpuoefft.31wkhu.top,unknown
unocl45trpuoefft.36u6mp.bid,unknown
unocl45trpuoefft.3n9lut.bid,unknown
unocl45trpuoefft.42wunw.bid,unknown
unocl45trpuoefft.4bb9vz.bid,unknown
unocl45trpuoefft.4k98id.top,unknown
unocl45trpuoefft.54drms.bid,unknown
unocl45trpuoefft.54m2k3.bid,unknown
unocl45trpuoefft.5o3euy.bid,unknown
unocl45trpuoefft.5v3uvc.bid,unknown
unocl45trpuoefft.60c61d.bid,unknown
unocl45trpuoefft.6w3rkc.bid,unknown
unocl45trpuoefft.75tdcj.bid,unknown
unocl45trpuoefft.78of7m.bid,unknown
unocl45trpuoefft.791sd5.bid,unknown
unocl45trpuoefft.7cevps.bid,unknown
unocl45trpuoefft.7eup7k.bid,unknown
unocl45trpuoefft.7tooul.bid,unknown
unocl45trpuoefft.88wz5p.bid,unknown
unocl45trpuoefft.8kcfnk.bid,unknown
unocl45trpuoefft.8uwckh.top,unknown
unocl45trpuoefft.9bjnlk.bid,unknown
unocl45trpuoefft.9lnito.top,unknown
unocl45trpuoefft.9lx4s6.bid,unknown
unocl45trpuoefft.9u3iy1.top,unknown
unocl45trpuoefft.a3migu.bid,unknown
unocl45trpuoefft.a4v4c3.bid,unknown
unocl45trpuoefft.ageshere.club,unknown
unocl45trpuoefft.ahhc36.top,unknown
unocl45trpuoefft.at593l.bid,unknown
unocl45trpuoefft.at9gwv.bid,unknown
unocl45trpuoefft.awspm2.top,unknown
unocl45trpuoefft.barzc4.bid,unknown
unocl45trpuoefft.bjahwh.bid,unknown
unocl45trpuoefft.c3fz3z.bid,unknown
unocl45trpuoefft.c4issd.bid,unknown
unocl45trpuoefft.c9kp0o.bid,unknown
unocl45trpuoefft.ceikto.bid,unknown
unocl45trpuoefft.cgf59i.top,unknown
unocl45trpuoefft.cifbp9.bid,unknown
unocl45trpuoefft.ckw9fm.top,unknown
unocl45trpuoefft.cm5ohx.bid,unknown
unocl45trpuoefft.csdbnk.bid,unknown
unocl45trpuoefft.csv7o6.bid,unknown
unocl45trpuoefft.cypz3w.top,unknown
unocl45trpuoefft.czzg7f.bid,unknown
unocl45trpuoefft.dwkofh.top,unknown
unocl45trpuoefft.dyo7c9.top,unknown
unocl45trpuoefft.efebgv.bid,unknown
unocl45trpuoefft.eloppu.bid,unknown
unocl45trpuoefft.emogew.bid,unknown
unocl45trpuoefft.eo6rzt.bid,unknown
unocl45trpuoefft.ev6i0x.bid,unknown
unocl45trpuoefft.eyohd2.top,unknown
unocl45trpuoefft.f17bam.bid,unknown
unocl45trpuoefft.freshsdog.loan,unknown
unocl45trpuoefft.frn62e.top,unknown
unocl45trpuoefft.gg4dgp.bid,unknown
unocl45trpuoefft.gio6f6.bid,unknown
unocl45trpuoefft.givxuf.bid,unknown
unocl45trpuoefft.hawtzr.bid,unknown
unocl45trpuoefft.he81tz.bid,unknown
unocl45trpuoefft.hur45z.bid,unknown
unocl45trpuoefft.hvh2gb.bid,unknown
unocl45trpuoefft.hxrd02.bid,unknown
unocl45trpuoefft.hynwbs.top,unknown
unocl45trpuoefft.hyr1h3.bid,unknown
unocl45trpuoefft.i1wcrl.bid,unknown
unocl45trpuoefft.i561zy.bid,unknown
unocl45trpuoefft.ibngww.top,unknown
unocl45trpuoefft.idw6s5.bid,unknown
unocl45trpuoefft.igpfcu.bid,unknown
unocl45trpuoefft.igrj6t.bid,unknown
unocl45trpuoefft.ih301a.bid,unknown
unocl45trpuoefft.ii2yoh.bid,unknown
unocl45trpuoefft.ilm071.bid,unknown
unocl45trpuoefft.j0cia7.bid,unknown
unocl45trpuoefft.j404oy.bid,unknown
unocl45trpuoefft.j8exy2.bid,unknown
unocl45trpuoefft.jcife9.bid,unknown
unocl45trpuoefft.jdf4je.bid,unknown
unocl45trpuoefft.jjogbj.top,unknown
unocl45trpuoefft.jnd0bj.bid,unknown
unocl45trpuoefft.jsotn5.top,unknown
unocl45trpuoefft.jvrh8g.bid,unknown
unocl45trpuoefft.k56185.top,unknown
unocl45trpuoefft.kf1gxm.bid,unknown
unocl45trpuoefft.kg5bof.bid,unknown
unocl45trpuoefft.kml2o2.top,unknown
unocl45trpuoefft.knowhands.us,unknown
unocl45trpuoefft.ks3ghp.bid,unknown
unocl45trpuoefft.kswcuk.top,unknown
unocl45trpuoefft.l05l27.top,unknown
unocl45trpuoefft.l69xgc.bid,unknown
unocl45trpuoefft.l97i5a.bid,unknown
unocl45trpuoefft.lak8wd.bid,unknown
unocl45trpuoefft.larebg.bid,unknown
unocl45trpuoefft.lcyznu.bid,unknown
unocl45trpuoefft.lio2wr.bid,unknown
unocl45trpuoefft.lk0bzc.top,unknown
unocl45trpuoefft.ll3zot.bid,unknown
unocl45trpuoefft.lzskva.bid,unknown
unocl45trpuoefft.m03t72.bid,unknown
unocl45trpuoefft.m33d4b.bid,unknown
unocl45trpuoefft.m9a225.top,unknown
unocl45trpuoefft.mbwxyg.bid,unknown
unocl45trpuoefft.md9eyv.bid,unknown
unocl45trpuoefft.meetsface.win,unknown
unocl45trpuoefft.metpast.date,unknown
unocl45trpuoefft.mezy7j.bid,unknown
unocl45trpuoefft.moonsides.faith,unknown
unocl45trpuoefft.n20b1c.top,unknown
unocl45trpuoefft.n41n1a.top,unknown
unocl45trpuoefft.n94lrn.bid,unknown
unocl45trpuoefft.na2iuz.bid,unknown
unocl45trpuoefft.nmit4p.bid,unknown
unocl45trpuoefft.noyl9o.bid,unknown
unocl45trpuoefft.nz6emv.bid,unknown
unocl45trpuoefft.o2dval.top,unknown
unocl45trpuoefft.o8hpwj.top,unknown
unocl45trpuoefft.og5ezh.top,unknown
unocl45trpuoefft.on2420.bid,unknown
unocl45trpuoefft.ozlrnx.bid,unknown
unocl45trpuoefft.p1gneb.bid,unknown
unocl45trpuoefft.p2ix1u.bid,unknown
unocl45trpuoefft.p4sr76.top,unknown
unocl45trpuoefft.pap44w.top,unknown
unocl45trpuoefft.pbprju.bid,unknown
unocl45trpuoefft.piy4l3.bid,unknown
unocl45trpuoefft.ptneek.bid,unknown
unocl45trpuoefft.r21wmw.top,unknown
unocl45trpuoefft.r2vai7.bid,unknown
unocl45trpuoefft.rgbb50.bid,unknown
unocl45trpuoefft.rie9py.bid,unknown
unocl45trpuoefft.rslh9a.top,unknown
unocl45trpuoefft.s7b63k.bid,unknown
unocl45trpuoefft.sirchi.bid,unknown
unocl45trpuoefft.sp4o1t.bid,unknown
unocl45trpuoefft.tcly4s.bid,unknown
unocl45trpuoefft.tfmmby.bid,unknown
unocl45trpuoefft.thanreal.link,unknown
unocl45trpuoefft.ttabop.bid,unknown
unocl45trpuoefft.u64rj2.top,unknown
unocl45trpuoefft.uaol08.bid,unknown
unocl45trpuoefft.ukwnvw.bid,unknown
unocl45trpuoefft.um1x6z.bid,unknown
unocl45trpuoefft.uog1ky.bid,unknown
unocl45trpuoefft.uso3z0.bid,unknown
unocl45trpuoefft.uw3r6a.top,unknown
unocl45trpuoefft.uwckha.top,unknown
unocl45trpuoefft.v4kx51.bid,unknown
unocl45trpuoefft.v50gtu.bid,unknown
unocl45trpuoefft.vfuvsv.bid,unknown
unocl45trpuoefft.vi5iko.bid,unknown
unocl45trpuoefft.vkm4l6.top,unknown
unocl45trpuoefft.vkslju.bid,unknown
unocl45trpuoefft.vlwbcz.bid,unknown
unocl45trpuoefft.vmomcc.bid,unknown
unocl45trpuoefft.whmykv.bid,unknown
unocl45trpuoefft.wl8t6k.bid,unknown
unocl45trpuoefft.wlvxd6.bid,unknown
unocl45trpuoefft.wz139z.top,unknown
unocl45trpuoefft.x9kjcn.bid,unknown
unocl45trpuoefft.x9le66.top,unknown
unocl45trpuoefft.xf38wp.bid,unknown
unocl45trpuoefft.xlxd92.bid,unknown
unocl45trpuoefft.y721yz.top,unknown
unocl45trpuoefft.ye4f7k.bid,unknown
unocl45trpuoefft.yky1uf.bid,unknown
unocl45trpuoefft.ytbyhs.bid,unknown
unocl45trpuoefft.yty0gm.bid,unknown
unocl45trpuoefft.zbj2kc.bid,unknown
unocl45trpuoefft.zdamew.bid,unknown
unocl45trpuoefft.zgheyh.bid,unknown
unocl45trpuoefft.zjems2.bid,unknown
unocl45trpuoefft.zn9cme.bid,unknown
urulvtffwoq.xyz,unknown
uuwflbmjmi.eu,unknown
uvcmlfca.biz,unknown
uxvvm.us,unknown
uxwavkmttywsuynt.pw,unknown
vcabbvhrqhot.pw,unknown
vewrb.italisumo.at,unknown
vpuroeit.pw,unknown
vrvis6ndra5jeggj.livegaming.ch,unknown
vrvis6ndra5jeggj.livewargaming.ch,unknown
vrvis6ndra5jeggj.onlinebattlefield.ch,unknown
vrympoqs5ra34nfo.bigbird.at,unknown
vrympoqs5ra34nfo.bigclear.at,unknown
vrympoqs5ra34nfo.smartbus.at,unknown
vrympoqs5ra34nfo.torhelper.pl,unknown
vujqbcditgsqxe.fr,unknown
vyohacxzoue32vvk.0ayn1s.top,unknown
vyohacxzoue32vvk.0ot7em.bid,unknown
vyohacxzoue32vvk.0vtwzy.top,unknown
vyohacxzoue32vvk.1m47ka.bid,unknown
vyohacxzoue32vvk.23fvxw.bid,unknown
vyohacxzoue32vvk.2hr4fs.top,unknown
vyohacxzoue32vvk.34o9h1.bid,unknown
vyohacxzoue32vvk.3buvlc.bid,unknown
vyohacxzoue32vvk.3m370u.top,unknown
vyohacxzoue32vvk.3peyo3.bid,unknown
vyohacxzoue32vvk.3t3hyf.top,unknown
vyohacxzoue32vvk.5a5vmh.top,unknown
vyohacxzoue32vvk.5i0ukv.bid,unknown
vyohacxzoue32vvk.5m2n7x.top,unknown
vyohacxzoue32vvk.5s96fr.top,unknown
vyohacxzoue32vvk.6wkz70.bid,unknown
vyohacxzoue32vvk.79j8fm.top,unknown
vyohacxzoue32vvk.7a07br.bid,unknown
vyohacxzoue32vvk.7jrv53.bid,unknown
vyohacxzoue32vvk.7m7ujm.bid,unknown
vyohacxzoue32vvk.8g1k17.bid,unknown
vyohacxzoue32vvk.ac7zvz.top,unknown
vyohacxzoue32vvk.axu3u8.bid,unknown
vyohacxzoue32vvk.b14kkk.bid,unknown
vyohacxzoue32vvk.c4cwr4.bid,unknown
vyohacxzoue32vvk.c8jxpp.top,unknown
vyohacxzoue32vvk.chnbyl.bid,unknown
vyohacxzoue32vvk.cp3yme.top,unknown
vyohacxzoue32vvk.d7h6yx.top,unknown
vyohacxzoue32vvk.dgjpgy.top,unknown
vyohacxzoue32vvk.dks71o.bid,unknown
vyohacxzoue32vvk.ean5e7.top,unknown
vyohacxzoue32vvk.ewfp5y.bid,unknown
vyohacxzoue32vvk.ezb568.top,unknown
vyohacxzoue32vvk.fp6fj6.top,unknown
vyohacxzoue32vvk.fsly47.top,unknown
vyohacxzoue32vvk.g7rst5.bid,unknown
vyohacxzoue32vvk.gjbmis.top,unknown
vyohacxzoue32vvk.h2xun1.top,unknown
vyohacxzoue32vvk.ibar8s.top,unknown
vyohacxzoue32vvk.jb4uh0.top,unknown
vyohacxzoue32vvk.jnv1df.top,unknown
vyohacxzoue32vvk.joco7r.top,unknown
vyohacxzoue32vvk.jwi2ek.bid,unknown
vyohacxzoue32vvk.k9p80d.top,unknown
vyohacxzoue32vvk.kfymbh.top,unknown
vyohacxzoue32vvk.kwrd4f.bid,unknown
vyohacxzoue32vvk.l4dlll.bid,unknown
vyohacxzoue32vvk.mayrwf.top,unknown
vyohacxzoue32vvk.mpduf5.bid,unknown
vyohacxzoue32vvk.ncw0rp.top,unknown
vyohacxzoue32vvk.nta934.top,unknown
vyohacxzoue32vvk.o08ra6.top,unknown
vyohacxzoue32vvk.o5b17o.top,unknown
vyohacxzoue32vvk.p9su2u.top,unknown
vyohacxzoue32vvk.pr52ni.top,unknown
vyohacxzoue32vvk.r31sot.top,unknown
vyohacxzoue32vvk.r3b2sh.top,unknown
vyohacxzoue32vvk.roep3o.top,unknown
vyohacxzoue32vvk.ss8doe.top,unknown
vyohacxzoue32vvk.t6ueop.bid,unknown
vyohacxzoue32vvk.u8e2dz.top,unknown
vyohacxzoue32vvk.ug6ewx.top,unknown
vyohacxzoue32vvk.vjso7r.top,unknown
vyohacxzoue32vvk.w22p3v.top,unknown
vyohacxzoue32vvk.w67y8u.bid,unknown
vyohacxzoue32vvk.x83zw1.top,unknown
vyohacxzoue32vvk.xsf5a8.top,unknown
vyohacxzoue32vvk.xy2rlg.bid,unknown
vyohacxzoue32vvk.zmn16h.top,unknown
vyohacxzoue32vvk.zn90h4.bid,unknown
vyohacxzoue32vvk.zp9i1l.bid,unknown
vyohacxzoue32vvk.zu3fzc.bid,unknown
vyohacxzoue32vvk.zz3w5l.bid,unknown
w6bfg4hahn5bfnlsafgchkvg5fwsfvrt.hareuna.at,unknown
waduavfijwkanvf.xyz,unknown
wbaskcsxiffiax.info,unknown
wdvxeval.ru,unknown
wersalitrestyws.top,unknown
wjfkoqueatxdmqw.biz,unknown
wjtqjleommc4z46i.249isv.bid,unknown
wjtqjleommc4z46i.2y4t6f.bid,unknown
wjtqjleommc4z46i.35rof4.bid,unknown
wjtqjleommc4z46i.35u068.bid,unknown
wjtqjleommc4z46i.44vva6.bid,unknown
wjtqjleommc4z46i.4bb9vz.bid,unknown
wjtqjleommc4z46i.54vw9b.bid,unknown
wjtqjleommc4z46i.5n5y6v.bid,unknown
wjtqjleommc4z46i.5r1sol.bid,unknown
wjtqjleommc4z46i.7hu6og.bid,unknown
wjtqjleommc4z46i.8a9r2h.bid,unknown
wjtqjleommc4z46i.993hev.bid,unknown
wjtqjleommc4z46i.9sellg.bid,unknown
wjtqjleommc4z46i.9ule2e.bid,unknown
wjtqjleommc4z46i.au6d1d.bid,unknown
wjtqjleommc4z46i.bipa9k.bid,unknown
wjtqjleommc4z46i.c3fz3z.bid,unknown
wjtqjleommc4z46i.cc0r87.bid,unknown
wjtqjleommc4z46i.cdyd2z.bid,unknown
wjtqjleommc4z46i.cgab48.bid,unknown
wjtqjleommc4z46i.cm5ohx.bid,unknown
wjtqjleommc4z46i.csv7o6.bid,unknown
wjtqjleommc4z46i.cto5ee.bid,unknown
wjtqjleommc4z46i.d11zjd.bid,unknown
wjtqjleommc4z46i.e53rg4.bid,unknown
wjtqjleommc4z46i.eag72x.top,unknown
wjtqjleommc4z46i.efyh72.bid,unknown
wjtqjleommc4z46i.f0jlbj.bid,unknown
wjtqjleommc4z46i.fw1bwy.bid,unknown
wjtqjleommc4z46i.fwfu4t.bid,unknown
wjtqjleommc4z46i.gg4dgp.bid,unknown
wjtqjleommc4z46i.h8prbu.top,unknown
wjtqjleommc4z46i.hom07d.bid,unknown
wjtqjleommc4z46i.i8zh1k.bid,unknown
wjtqjleommc4z46i.idw6s5.bid,unknown
wjtqjleommc4z46i.ilmgcl.bid,unknown
wjtqjleommc4z46i.izyclz.bid,unknown
wjtqjleommc4z46i.j0n83w.bid,unknown
wjtqjleommc4z46i.jal9lk.bid,unknown
wjtqjleommc4z46i.jujthy.bid,unknown
wjtqjleommc4z46i.kt70uk.bid,unknown
wjtqjleommc4z46i.kyjw0g.bid,unknown
wjtqjleommc4z46i.kzhzuc.top,unknown
wjtqjleommc4z46i.ldsl8m.bid,unknown
wjtqjleommc4z46i.m33d4b.bid,unknown
wjtqjleommc4z46i.n8ln0w.bid,unknown
wjtqjleommc4z46i.nh47ri.bid,unknown
wjtqjleommc4z46i.nnbdlh.bid,unknown
wjtqjleommc4z46i.nxmu0x.bid,unknown
wjtqjleommc4z46i.o8hpwj.top,unknown
wjtqjleommc4z46i.obx4vo.bid,unknown
wjtqjleommc4z46i.oodvxp.bid,unknown
wjtqjleommc4z46i.p41khf.bid,unknown
wjtqjleommc4z46i.pmnz7a.bid,unknown
wjtqjleommc4z46i.salethe.gdn,unknown
wjtqjleommc4z46i.srmlzh.bid,unknown
wjtqjleommc4z46i.srtos7.bid,unknown
wjtqjleommc4z46i.t4jp3w.bid,unknown
wjtqjleommc4z46i.u36ik0.bid,unknown
wjtqjleommc4z46i.uv39h5.bid,unknown
wjtqjleommc4z46i.uwckha.top,unknown
wjtqjleommc4z46i.vh6vss.bid,unknown
wjtqjleommc4z46i.w3r6a4.bid,unknown
wjtqjleommc4z46i.whmykv.bid,unknown
wjtqjleommc4z46i.xjwlms.bid,unknown
wjtqjleommc4z46i.y12acl.bid,unknown
wjtqjleommc4z46i.y2ijlz.bid,unknown
wjtqjleommc4z46i.y7603i.bid,unknown
wjtqjleommc4z46i.yfr0o1.bid,unknown
wjtqjleommc4z46i.z7uxzg.bid,unknown
wjtqjleommc4z46i.z97f9v.bid,unknown
wjtqjleommc4z46i.zclhx9.bid,unknown
wor4d.slewirk.at,unknown
wpvvusso.xyz,unknown
wqxvsxppjivs.pw,unknown
wrubyjtvqhxaqkh.pw,unknown
wtxvmsikbmtbq.pw,unknown
wvltrlrnf.xyz,unknown
www.1axb.com,unknown
www.chromebewfk.top,unknown
www.chromefastl.top,unknown
www.chromehakc.top,unknown
www.cleverdotl.top,unknown
www.ddiopoola.top,unknown
www.dealkolld.top,unknown
www.dokjasura.top,unknown
www.fkauueeepla.top,unknown
www.flowerxpo.top,unknown
www.foolalexas.top,unknown
www.googlefoad.top,unknown
www.newsectorbs.top,unknown
www.newtonpaiva.br,unknown
www.watherfka.top,unknown
www.weekendlk.top,unknown
x5sbb5gesp6kzwsh.frontmain.pl,unknown
x5sbb5gesp6kzwsh.frontymen.pl,unknown
x5sbb5gesp6kzwsh.homewind.pl,unknown
x5sbb5gesp6kzwsh.mailteam.pl,unknown
x5sbb5gesp6kzwsh.questpul.pl,unknown
xfyubqmldwvuyar.yt,unknown
xhrnfffaixawpuob.pw,unknown
xmniabhrfafptwx.pw,unknown
xofguhypjgvxrm.pw,unknown
xpcx6erilkjced3j.16hwwh.top,unknown
xpcx6erilkjced3j.16umxg.top,unknown
xpcx6erilkjced3j.17gcun.top,unknown
xpcx6erilkjced3j.18ey8e.top,unknown
xpcx6erilkjced3j.19kdeh.top,unknown
xpcx6erilkjced3j.1blery.top,unknown
xpcx6erilkjced3j.1cgbcv.top,unknown
xpcx6erilkjced3j.1ebjjq.top,unknown
xpcx6erilkjced3j.1j9jad.top,unknown
xpcx6erilkjced3j.1jyrty.top,unknown
xpcx6erilkjced3j.1mfmkz.top,unknown
xpcx6erilkjced3j.1mpsnr.top,unknown
xpcx6erilkjced3j.1n5mod.top,unknown
xrhwryizf5mui7a5.50mb1c.bid,unknown
xrhwryizf5mui7a5.djintc.bid,unknown
xrhwryizf5mui7a5.g72xh8.top,unknown
xrhwryizf5mui7a5.h44l3d.bid,unknown
xrhwryizf5mui7a5.j4cser.bid,unknown
xrhwryizf5mui7a5.jhrb5a.top,unknown
xrhwryizf5mui7a5.r8c85p.top,unknown
xrhwryizf5mui7a5.rt01jw.top,unknown
xrhwryizf5mui7a5.uw9x7z.bid,unknown
xrhwryizf5mui7a5.vgxcci.top,unknown
xvchcbeqxkd.pw,unknown
xyhhuxa.be,unknown
y4bxj.adozeuds.com,unknown
yavmxpiqfwmubk.pw,unknown
yaynawvtuqcarjwc.pw,unknown
ycvcjbhgkmsiyhdd.info,unknown
yofkhfskdyiqo.biz,unknown
ytcijiooxdtlbevrh.info,unknown
ytrest84y5i456hghadefdsd.pontogrot.com,unknown
yuertao.pw,unknown
yuysikankhqvdwdv.xyz,unknown
ywjgjvpuyitnbiw.info,unknown
yyre45dbvn2nhbefbmh.begumvelic.at,unknown
zjfq4lnfbs7pncr5.onion.to,unknown
zjfq4lnfbs7pncr5.tor2web.org,unknown
ztuw5bvuuapzdfya.klimbim.pl,unknown
zutzt67dcxr6mxcn.onion.to,unknown
